{"status":true,"items":[{"modified":{"time":"2024-02-25T09:24:54.000Z"},"_id":"65daa372e5f40e2ffe62c2ba","name":"Con Đường Phú Quý","slug":"con-duong-phu-quy","origin_name":"Born Rich","thumb_url":"con-duong-phu-quy-thumb.jpg","poster_url":"con-duong-phu-quy-poster.jpg","year":2009},{"modified":{"time":"2024-02-25T00:47:48.000Z"},"_id":"65b4afb17074f826ccf3e5e3","name":"Tài Phiệt và Cảnh Sát","slug":"tai-phiet-va-canh-sat","origin_name":"Flex X Cop","thumb_url":"tai-phiet-va-canh-sat-thumb.jpg","poster_url":"tai-phiet-va-canh-sat-poster.jpg","year":2024},{"modified":{"time":"2024-02-24T22:15:00.000Z"},"_id":"659e42b47074f826ccc483c9","name":"Transit Love (Phần 3)","slug":"transit-love-phan-3","origin_name":"EXchange","thumb_url":"transit-love-phan-3-thumb.jpg","poster_url":"transit-love-phan-3-poster.jpg","year":2023},{"modified":{"time":"2024-02-24T19:56:56.000Z"},"_id":"65d327f0ff05f1a47d1dfc61","name":"Xuân Nhật Nùng Tình","slug":"xuan-nhat-nung-tinh","origin_name":"Roses & Guns","thumb_url":"xuan-nhat-nung-tinh-thumb.jpg","poster_url":"xuan-nhat-nung-tinh-poster.jpg","year":2024},{"modified":{"time":"2024-02-24T19:31:00.000Z"},"_id":"65d9dcd4e5f40e2ffe616b6e","name":"Ẩn Số Về Chúng Ta","slug":"an-so-ve-chung-ta","origin_name":"Unknown","thumb_url":"an-so-ve-chung-ta-thumb.jpg","poster_url":"an-so-ve-chung-ta-poster.jpg","year":2024},{"modified":{"time":"2024-02-24T18:45:40.000Z"},"_id":"63afcd956414a08fbe684675","name":"Sorbet Nam Việt Quất","origin_name":"Kızılcık Şerbeti","thumb_url":"sorbet-nam-viet-quat-thumb.jpg","poster_url":"sorbet-nam-viet-quat-poster.jpg","slug":"sorbet-nam-viet-quat","year":2022},{"modified":{"time":"2024-02-24T17:06:34.000Z"},"_id":"651bdd7b25c3f47570d58f56","name":"Ngạo Thế Cửu Trùng Thiên","slug":"ngao-the-cuu-trung-thien","origin_name":"傲世九重天","thumb_url":"ngao-the-cuu-trung-thien-thumb.jpg","poster_url":"ngao-the-cuu-trung-thien-poster.jpg","year":2023},{"modified":{"time":"2024-02-24T16:56:42.000Z"},"_id":"6569e528aa7d07ce5caff0e6","name":"Thập Phương Võ Thánh","slug":"thap-phuong-vo-thanh","origin_name":"The Invincible","thumb_url":"thap-phuong-vo-thanh-thumb.jpg","poster_url":"thap-phuong-vo-thanh-poster.jpg","year":2023},{"modified":{"time":"2024-02-24T16:02:07.000Z"},"_id":"659901477074f826ccbd9885","name":"Chặng đường Pon","slug":"chang-duong-pon","origin_name":"ぽんのみち","thumb_url":"chang-duong-pon-thumb.jpg","poster_url":"chang-duong-pon-poster.jpg","year":2024},{"modified":{"time":"2024-02-24T16:01:47.000Z"},"_id":"65586fd303f63c57cb9da467","name":"Bất Tử Bất Diệt: Thiếu Niên Xuất Sơn","slug":"bat-tu-bat-diet-thieu-nien-xuat-son","origin_name":"The Eternal Strife","thumb_url":"bat-tu-bat-diet-thieu-nien-xuat-son-thumb.jpg","poster_url":"bat-tu-bat-diet-thieu-nien-xuat-son-poster.jpg","year":2023},{"modified":{"time":"2024-02-24T15:22:44.000Z"},"_id":"65d9a719f5295c8cd1f3ff91","name":"Matthew Hardy: Tiết lộ bí mật","slug":"matthew-hardy-tiet-lo-bi-mat","origin_name":"Can I Tell You a Secret?","thumb_url":"matthew-hardy-tiet-lo-bi-mat-thumb.jpg","poster_url":"matthew-hardy-tiet-lo-bi-mat-poster.jpg","year":2024},{"modified":{"time":"2024-02-24T15:20:10.000Z"},"_id":"65d9a6b1e5f40e2ffe60f201","name":"To Be Continued","slug":"to-be-continued","origin_name":"To Be Continued","thumb_url":"to-be-continued-thumb.jpg","poster_url":"to-be-continued-poster.jpg","year":2024},{"modified":{"time":"2024-02-24T15:19:22.000Z"},"_id":"65d9a67ee5f40e2ffe60efcd","name":"Dragon Sakura (Phần 2)","slug":"dragon-sakura-phan-2","origin_name":"Dragon Sakura Season 2","thumb_url":"dragon-sakura-phan-2-thumb.jpg","poster_url":"dragon-sakura-phan-2-poster.jpg","year":2021},{"modified":{"time":"2024-02-24T15:06:44.000Z"},"_id":"65d9a38cf5295c8cd1f3eff2","name":"Phòng khám thất tình","slug":"phong-kham-that-tinh","origin_name":"The Heartbreak Agency","thumb_url":"phong-kham-that-tinh-thumb.jpg","poster_url":"phong-kham-that-tinh-poster.jpg","year":2024},{"modified":{"time":"2024-02-24T15:05:43.000Z"},"_id":"65d9a354f5295c8cd1f3edfa","name":"Mãi Mãi Yêu Anh","slug":"mai-mai-yeu-anh","origin_name":"An Incurable Case of Love","thumb_url":"mai-mai-yeu-anh-thumb.jpg","poster_url":"mai-mai-yeu-anh-poster.jpg","year":2020},{"modified":{"time":"2024-02-24T15:03:15.000Z"},"_id":"65d46b54ff05f1a47d1fda84","name":"Ready, Set, Love","slug":"ready-set-love","origin_name":"Ready, Set, Love","thumb_url":"ready-set-love-thumb.jpg","poster_url":"ready-set-love-poster.jpg","year":2024},{"modified":{"time":"2024-02-24T10:53:57.000Z"},"_id":"65d963eef5295c8cd1f37539","name":"Tần Thủy Hoàng","slug":"tan-thuy-hoang","origin_name":"Tần Thủy Hoàng","thumb_url":"tan-thuy-hoang-thumb.jpg","poster_url":"tan-thuy-hoang-poster.jpg","year":1986},{"modified":{"time":"2024-02-23T22:53:06.000Z"},"_id":"65b37b3631d8a2b99ec63492","name":"Bá Chủ Bầu Trời","slug":"ba-chu-bau-troi","origin_name":"Masters of the Air","thumb_url":"ba-chu-bau-troi-thumb.jpg","poster_url":"ba-chu-bau-troi-poster.jpg","year":2024},{"modified":{"time":"2024-02-23T22:52:32.000Z"},"_id":"64a5657c953e2ecd7e0a90b2","name":"Khói Lửa Nhân Gian Của Tôi","slug":"khoi-lua-nhan-gian-cua-toi","origin_name":"Fireworks of My Heart","thumb_url":"khoi-lua-nhan-gian-cua-toi-thumb.jpg","poster_url":"khoi-lua-nhan-gian-cua-toi-poster.jpg","year":2023},{"modified":{"time":"2024-02-23T19:32:31.000Z"},"_id":"65c24414ff05f1a47d0a405a","name":"Đại Đường Địch Công Án","slug":"dai-duong-dich-cong-an","origin_name":"Judge Dee's Mystery","thumb_url":"dai-duong-dich-cong-an-thumb.jpg","poster_url":"dai-duong-dich-cong-an-poster.jpg","year":2024},{"modified":{"time":"2024-02-23T15:34:59.000Z"},"_id":"653b74f9aab68118a3b76d78","name":"Thiếu Niên Ca Hành Phần 3","slug":"thieu-nien-ca-hanh-phan-3","origin_name":"Youths and Golden Coffin 3","thumb_url":"thieu-nien-ca-hanh-phan-3-thumb.jpg","poster_url":"thieu-nien-ca-hanh-phan-3-poster.jpg","year":2023},{"modified":{"time":"2024-02-23T15:32:47.000Z"},"_id":"65a0ef7f31d8a2b99ea1442d","name":"URUSEI YATSURA Mùa 2","slug":"urusei-yatsura-mua-2","origin_name":"うる星やつら　後半","thumb_url":"urusei-yatsura-mua-2-thumb.jpg","poster_url":"urusei-yatsura-mua-2-poster.jpg","year":2024},{"modified":{"time":"2024-02-23T15:32:26.000Z"},"_id":"658544beefed8b7739da4440","name":"No. 7 West Mars St.","slug":"no-7-west-mars-st","origin_name":"火星西路7号","thumb_url":"no-7-west-mars-st-thumb.jpg","poster_url":"no-7-west-mars-st-poster.jpg","year":2023},{"modified":{"time":"2024-02-23T15:24:53.000Z"},"_id":"64147f7e72b9a838f842fcf9","name":"Chim Lửa","slug":"chim-lua-tho-nhi-ky","origin_name":"Ateş Kuşları","thumb_url":"chim-lua-tho-nhi-ky-thumb.jpg","poster_url":"chim-lua-tho-nhi-ky-poster.jpg","year":2023}],"pathImage":"https://img.ophim12.cc/uploads/movies/","pagination":{"totalItems":25407,"totalItemsPerPage":24,"currentPage":4,"totalPages":1059}}