{"status":true,"items":[{"modified":{"time":"2023-04-01T08:39:33.000Z"},"_id":"64278b53c6a3dc1b3d1913cd","name":"Vở Kịch Kinh Hoàng","slug":"vo-kich-kinh-hoang","origin_name":"Stage Fright","thumb_url":"vo-kich-kinh-hoang-thumb.jpg","poster_url":"vo-kich-kinh-hoang-poster.jpg","year":2014},{"modified":{"time":"2023-04-01T08:38:07.000Z"},"_id":"64278afdbe1ee82036a40758","name":"Chiếc Túi Nguy Hiểm","slug":"chiec-tui-nguy-hiem","origin_name":"The Bag Man","thumb_url":"chiec-tui-nguy-hiem-thumb.jpg","poster_url":"chiec-tui-nguy-hiem-poster.jpg","year":2014},{"modified":{"time":"2023-04-01T08:36:33.000Z"},"_id":"64278a9dc6a3dc1b3d1912a9","name":"The Captive","slug":"the-captive","origin_name":"The Captive","thumb_url":"the-captive-thumb.jpg","poster_url":"the-captive-poster.jpg","year":2014},{"modified":{"time":"2023-04-01T08:33:46.000Z"},"_id":"642789f454695c9785d4bb45","name":"The King","slug":"the-king","origin_name":"The King","thumb_url":"the-king-thumb.jpg","poster_url":"the-king-poster.jpg","year":2019},{"modified":{"time":"2023-04-01T08:31:46.000Z"},"_id":"64278981c6a3dc1b3d1911bf","name":"The Prince","slug":"the-prince","origin_name":"The Prince","thumb_url":"the-prince-thumb.jpg","poster_url":"the-prince-poster.jpg","year":2014},{"modified":{"time":"2023-04-01T08:05:21.000Z"},"_id":"6427834f6b6fc389047768ea","name":"Thầm Lặng","slug":"tham-lang","origin_name":"The Quiet Ones","thumb_url":"tham-lang-thumb.jpg","poster_url":"tham-lang-poster.jpg","year":2014},{"modified":{"time":"2023-04-01T08:03:46.000Z"},"_id":"642782f0be1ee82036a4036a","name":"Nhân Cách Cuối Cùng","slug":"nhan-cach-cuoi-cung","origin_name":"The Scribbler","thumb_url":"nhan-cach-cuoi-cung-thumb.jpg","poster_url":"nhan-cach-cuoi-cung-poster.jpg","year":2014},{"modified":{"time":"2023-04-01T08:01:56.000Z"},"_id":"6427828254695c9785d4b7e3","name":"Vampire Academy","slug":"vampire-academy","origin_name":"Vampire Academy","thumb_url":"vampire-academy-thumb.jpg","poster_url":"vampire-academy-poster.jpg","year":2014},{"modified":{"time":"2023-04-01T08:00:06.000Z"},"_id":"64278214162420646b034944","name":"Chim Trắng Giữa Bão Tuyết","slug":"chim-trang-giua-bao-tuyet","origin_name":"White Bird in a Blizzard","thumb_url":"chim-trang-giua-bao-tuyet-thumb.jpg","poster_url":"chim-trang-giua-bao-tuyet-poster.jpg","year":2014},{"modified":{"time":"2023-04-01T01:19:06.000Z"},"_id":"64270cae54695c9785d4a60c","name":"Gửi Đến Bạn Hiền","slug":"gui-den-ban-hien","origin_name":"From Me to You: Kimi ni Todoke","thumb_url":"gui-den-ban-hien-thumb.jpg","poster_url":"gui-den-ban-hien-poster.jpg","year":2023},{"modified":{"time":"2023-03-31T23:37:57.000Z"},"_id":"63c199797e5c0d5397c8fb79","name":"Thứ Quả Tiến Hóa: Còn Chưa Hiểu Chuyện Gì Thì Đời Tôi Đã Trở Nên Vô Đối Phần 2","origin_name":"真・進化の実〜知らないうちに勝ち組人生〜","thumb_url":"thu-qua-tien-hoa-con-chua-hieu-chuyen-gi-thi-doi-toi-da-tro-nen-vo-doi-phan-2-thumb.jpg","poster_url":"thu-qua-tien-hoa-con-chua-hieu-chuyen-gi-thi-doi-toi-da-tro-nen-vo-doi-phan-2-poster.jpg","slug":"thu-qua-tien-hoa-con-chua-hieu-chuyen-gi-thi-doi-toi-da-tro-nen-vo-doi-phan-2","year":2023},{"modified":{"time":"2023-03-31T22:36:14.000Z"},"_id":"6426ba58be1ee82036a3d416","name":"Sắc Màu Pháo Hoa Nhân Gian","slug":"sac-mau-phao-hoa-nhan-gian","origin_name":"Falling Before Fireworks","thumb_url":"sac-mau-phao-hoa-nhan-gian-thumb.jpg","poster_url":"sac-mau-phao-hoa-nhan-gian-poster.jpg","year":2023},{"modified":{"time":"2023-03-31T19:13:42.000Z"},"_id":"6410036c4dbb585d69f320b4","name":"Quy Lộ (Đường Về Nhà)","slug":"quy-lo-duong-ve-nha","origin_name":"ROAD HOME","thumb_url":"quy-lo-duong-ve-nha-thumb.jpg","poster_url":"quy-lo-duong-ve-nha-poster.jpg","year":2023},{"modified":{"time":"2023-03-31T18:02:57.000Z"},"_id":"620f811a91fa4af90ab6af50","name":"Giáng sinh năm ấy","origin_name":"Last Christmas","thumb_url":"giang-sinh-nam-ay-thumb.jpg","slug":"giang-sinh-nam-ay","year":2019,"poster_url":"giang-sinh-nam-ay-poster.jpg"},{"modified":{"time":"2023-03-31T18:02:34.000Z"},"_id":"620f80ea91fa4af90ab6af1b","name":"Đừng nhìn lên","origin_name":"Don't Look Up","thumb_url":"dung-nhin-len-thumb.jpg","slug":"dung-nhin-len","year":2021,"poster_url":"dung-nhin-len-poster.jpg"},{"modified":{"time":"2023-03-31T18:01:59.000Z"},"_id":"620f806791fa4af90ab6ae34","name":"CIA tái xuất 2","origin_name":"RED 2","thumb_url":"cia-tai-xuat-2-thumb.jpg","slug":"cia-tai-xuat-2","year":2013,"poster_url":"cia-tai-xuat-2-poster.jpg"},{"modified":{"time":"2023-03-31T18:01:29.000Z"},"_id":"620f7f7591fa4af90ab6ac5a","name":"Bác sĩ Dolittle: Chuyến phiêu lưu thần thoại","origin_name":"Dolittle","thumb_url":"bac-si-dolittle-chuyen-phieu-luu-than-thoai-thumb.jpg","slug":"bac-si-dolittle-chuyen-phieu-luu-than-thoai","year":2020,"poster_url":"bac-si-dolittle-chuyen-phieu-luu-than-thoai-poster.jpg"},{"modified":{"time":"2023-03-31T18:00:32.000Z"},"_id":"620f7ef991fa4af90ab6ab65","name":"Vùng đất linh hồn","origin_name":"Spirited Away","thumb_url":"vung-dat-linh-hon-thumb.jpg","slug":"vung-dat-linh-hon","year":2001,"poster_url":"vung-dat-linh-hon-poster.jpg"},{"modified":{"time":"2023-03-31T18:00:04.000Z"},"_id":"620f7eac91fa4af90ab6aafc","name":"Ước nguyện thần long","origin_name":"Wish Dragon","thumb_url":"uoc-nguyen-than-long-thumb.jpg","slug":"uoc-nguyen-than-long","year":2021,"poster_url":"uoc-nguyen-than-long-poster.jpg"},{"modified":{"time":"2023-03-31T17:59:14.000Z"},"_id":"620f7d5b91fa4af90ab6a91a","name":"The Power of the Dog","origin_name":"The Power of the Dog","thumb_url":"the-power-of-the-dog-thumb.jpg","slug":"the-power-of-the-dog","year":2021,"poster_url":"the-power-of-the-dog-poster.jpg"},{"modified":{"time":"2023-03-31T17:58:48.000Z"},"_id":"620f7d1891fa4af90ab6a8a4","name":"Thám tử gà mơ: Bộ ba khó đỡ","origin_name":"The Accidental Detective 2: In Action","thumb_url":"tham-tu-ga-mo-bo-ba-kho-do-thumb.jpg","slug":"tham-tu-ga-mo-bo-ba-kho-do","year":2018,"poster_url":"tham-tu-ga-mo-bo-ba-kho-do-poster.jpg"},{"modified":{"time":"2023-03-31T17:58:18.000Z"},"_id":"620f7ccc91fa4af90ab6a80b","name":"Sát thủ John Wick","origin_name":"John Wick","thumb_url":"sat-thu-john-wick-thumb.jpg","slug":"sat-thu-john-wick","year":2014,"poster_url":"sat-thu-john-wick-poster.jpg"},{"modified":{"time":"2023-03-31T15:57:33.000Z"},"_id":"63f870af7c423019ff863f0b","name":"Đối Tác Bất Đắc Dĩ","origin_name":"Liaison","thumb_url":"doi-tac-bat-dac-di-thumb.jpg","poster_url":"doi-tac-bat-dac-di-poster.jpg","slug":"doi-tac-bat-dac-di","year":2023},{"modified":{"time":"2023-03-31T13:57:25.000Z"},"_id":"6426845583982600241fad1e","name":"Tetris","slug":"tetris","origin_name":"Tetris","thumb_url":"tetris-thumb.jpg","poster_url":"tetris-poster.jpg","year":2023}],"pathImage":"https://img.ophim12.cc/uploads/movies/","pagination":{"totalItems":25554,"totalItemsPerPage":24,"currentPage":519,"totalPages":1065}}