{"status":true,"items":[{"modified":{"time":"2024-02-26T09:51:44.000Z"},"_id":"65dbfcbdf5295c8cd1f804d7","name":"20 Days in Mariupol","slug":"20-days-in-mariupol","origin_name":"20 Days in Mariupol","thumb_url":"20-days-in-mariupol-thumb.jpg","poster_url":"20-days-in-mariupol-poster.jpg","year":2023},{"modified":{"time":"2024-02-26T09:50:25.000Z"},"_id":"65dbfc6ff5295c8cd1f80216","name":"Âm Thanh Của Trái Đất - Earthsounds","slug":"am-thanh-cua-trai-dat-earthsounds","origin_name":"Earthsounds","thumb_url":"am-thanh-cua-trai-dat-earthsounds-thumb.jpg","poster_url":"am-thanh-cua-trai-dat-earthsounds-poster.jpg","year":2024},{"modified":{"time":"2024-02-26T09:43:27.000Z"},"_id":"65dbfacdf5295c8cd1f7fa8d","name":"Kỳ World Cup Của Messi: Huyền Thoại Tỏa Sáng - Messi's World Cup: The Rise of a Legend","slug":"ky-world-cup-cua-messi-huyen-thoai-toa-sang-messis-world-cup-the-rise-of-a-legend","origin_name":"Messi's World Cup: The Rise of a Legend","thumb_url":"ky-world-cup-cua-messi-huyen-thoai-toa-sang-messis-world-cup-the-rise-of-a-legend-thumb.jpg","poster_url":"ky-world-cup-cua-messi-huyen-thoai-toa-sang-messis-world-cup-the-rise-of-a-legend-poster.jpg","year":2024},{"modified":{"time":"2024-02-26T09:40:24.000Z"},"_id":"65dbfa16e5f40e2ffe64f750","name":"Einstein và trái bom","slug":"einstein-va-trai-bom","origin_name":"Einstein and the Bomb","thumb_url":"einstein-va-trai-bom-thumb.jpg","poster_url":"einstein-va-trai-bom-poster.jpg","year":2024},{"modified":{"time":"2024-02-25T22:14:15.000Z"},"_id":"6524d6601e9ad2fe0c48dbdd","name":"Shangri-La Frontier: Thợ săn game rác","slug":"shangri-la-frontier","origin_name":"Shangri-La Frontier","thumb_url":"shangri-la-frontier-thumb.jpg","poster_url":"shangri-la-frontier-poster.jpg","year":2023},{"modified":{"time":"2024-02-25T22:13:57.000Z"},"_id":"62a1a4ae7a956fb5db030134","name":"Thần Ấn Vương Toạ","origin_name":"Throne of Seal","thumb_url":"than-an-vuong-toa-thumb.jpg","poster_url":"than-an-vuong-toa-poster.jpg","slug":"than-an-vuong-toa","year":2022},{"modified":{"time":"2024-02-25T22:09:13.000Z"},"_id":"6505f52425c3f47570c8fb41","name":"Đại Chúa Tể","slug":"dai-chua-te-2023","origin_name":"The Great Ruler","thumb_url":"dai-chua-te-2023-thumb.jpg","poster_url":"dai-chua-te-2023-poster.jpg","year":2023},{"modified":{"time":"2024-02-25T22:08:27.000Z"},"_id":"65282ff525c3f47570dd21e5","name":"Nghịch Thiên Tà Thần","slug":"nghich-thien-ta-than","origin_name":"Against the Gods","thumb_url":"nghich-thien-ta-than-thumb.jpg","poster_url":"nghich-thien-ta-than-poster.jpg","year":2023},{"modified":{"time":"2024-02-25T22:08:03.000Z"},"_id":"657b00162f36c295ed264e40","name":"Trò Chơi Sống Còn","slug":"tro-choi-song-con","origin_name":"Fatal Rule","thumb_url":"tro-choi-song-con-thumb.jpg","poster_url":"tro-choi-song-con-poster.jpg","year":2023},{"modified":{"time":"2024-02-25T22:07:14.000Z"},"_id":"6274deed3a2c0c6289bdb9a0","name":"Thần Võ Thiên Tôn","origin_name":"The  Legend of  Sky Lord","thumb_url":"than-vo-thien-ton-thumb.jpg","slug":"than-vo-thien-ton","year":2020,"poster_url":"than-vo-thien-ton-poster.jpg"},{"modified":{"time":"2024-02-25T21:56:03.000Z"},"_id":"6496778689254768d75ee8e3","name":"Đấu La Đại Lục 2: Tuyệt Thế Đường Môn","slug":"dau-la-dai-luc-2-tuyet-the-duong-mon","origin_name":"Soul Land 2: The Peerless Tang Clan","thumb_url":"dau-la-dai-luc-2-tuyet-the-duong-mon-thumb.jpg","poster_url":"dau-la-dai-luc-2-tuyet-the-duong-mon-poster.jpg","year":2023},{"modified":{"time":"2024-02-25T21:43:28.000Z"},"_id":"65c3468d5540d59e3fe6261a","name":"Nam Lai Bắc Vãng","slug":"nam-lai-bac-vang","origin_name":"Always on the Move","thumb_url":"nam-lai-bac-vang-thumb.jpg","poster_url":"nam-lai-bac-vang-poster.jpg","year":2024},{"modified":{"time":"2024-02-25T16:26:08.000Z"},"_id":"6220e66e8481266c5b7f154f","name":"Đảo Hải Tặc","origin_name":"One Piece (Luffy)","thumb_url":"one-piece-thumb.jpg","slug":"one-piece","year":1999,"poster_url":"one-piece-poster.jpg"},{"modified":{"time":"2024-02-25T16:24:54.000Z"},"_id":"651929a2fe8e2316c0895d16","name":"Ragna Crimson","slug":"ragna-crimson","origin_name":"ラグナクリムゾン","thumb_url":"ragna-crimson-thumb.jpg","poster_url":"ragna-crimson-poster.jpg","year":2023},{"modified":{"time":"2024-02-25T16:24:29.000Z"},"_id":"657ea057efed8b7739b93f78","name":"Cuộc Sống Thường Ngày Của Tiên Vương (Phần 4)","slug":"cuoc-song-thuong-ngay-cua-tien-vuong-phan-4","origin_name":"The Daily Life of the Immortal King Season 4","thumb_url":"cuoc-song-thuong-ngay-cua-tien-vuong-phan-4-thumb.jpg","poster_url":"cuoc-song-thuong-ngay-cua-tien-vuong-phan-4-poster.jpg","year":2023},{"modified":{"time":"2024-02-25T16:23:45.000Z"},"_id":"65db0243e5f40e2ffe63a80b","name":"Bách Yêu Phổ Phần 4","slug":"bach-yeu-pho-phan-4","origin_name":"百妖谱 第四季","thumb_url":"bach-yeu-pho-phan-4-thumb.jpg","poster_url":"bach-yeu-pho-phan-4-poster.jpg","year":2024},{"modified":{"time":"2024-02-25T13:07:05.000Z"},"_id":"65dacde7e5f40e2ffe634400","name":"Star Wars: Biệt Đội Nhân Bản Đặc Biệt (Phần 3)","slug":"star-wars-biet-doi-nhan-ban-dac-biet","origin_name":"Star Wars: The Bad Batch Season 3","thumb_url":"star-wars-biet-doi-nhan-ban-dac-biet-thumb.jpg","poster_url":"star-wars-biet-doi-nhan-ban-dac-biet-poster.jpg","year":2024},{"modified":{"time":"2024-02-25T12:38:27.000Z"},"_id":"65d978ace5f40e2ffe609727","name":"Chuông Reo","slug":"chuong-reo","origin_name":"Bell Ringing","thumb_url":"chuong-reo-thumb.jpg","poster_url":"chuong-reo-poster.jpg","year":2024},{"modified":{"time":"2024-02-25T12:23:00.000Z"},"_id":"658d2b9befed8b7739f08443","name":"Một Chương Hạnh Phúc","slug":"mot-chuong-hanh-phuc","origin_name":"My Happy Ending","thumb_url":"mot-chuong-hanh-phuc-thumb.jpg","poster_url":"mot-chuong-hanh-phuc-poster.jpg","year":2023},{"modified":{"time":"2024-02-25T12:22:24.000Z"},"_id":"65dace90f5295c8cd1f64ddb","name":"Bệnh Viện Thứ Nhì Của Thiên Hà","slug":"benh-vien-thu-nhi-cua-thien-ha","origin_name":"The Second Best Hospital in the Galaxy","thumb_url":"benh-vien-thu-nhi-cua-thien-ha-thumb.jpg","poster_url":"benh-vien-thu-nhi-cua-thien-ha-poster.jpg","year":2024},{"modified":{"time":"2024-02-25T12:04:54.000Z"},"_id":"65895034efed8b7739df15a9","name":"Dead Friend Forever","slug":"dead-friend-forever","origin_name":"Dead Friend Forever - DFF: Uncovered Version","thumb_url":"dead-friend-forever-thumb.jpg","poster_url":"dead-friend-forever-poster.jpg","year":2023},{"modified":{"time":"2024-02-25T11:39:17.000Z"},"_id":"65cef3c0ff05f1a47d1806d2","name":"Hoàng Phi Cớ Sao Lại Thế","slug":"hoang-phi-co-sao-lai-the","origin_name":"What's Wrong with My Princess","thumb_url":"hoang-phi-co-sao-lai-the-thumb.jpg","poster_url":"hoang-phi-co-sao-lai-the-poster.jpg","year":2023},{"modified":{"time":"2024-02-25T11:25:48.000Z"},"_id":"657e9742efed8b7739b91ed6","name":"Thăng Cấp Một Mình","slug":"thang-cap-mot-minh","origin_name":"Chỉ mình tôi thăng cấp, Solo Leveling","thumb_url":"thang-cap-mot-minh-thumb.jpg","poster_url":"thang-cap-mot-minh-poster.jpg","year":2024},{"modified":{"time":"2024-02-25T11:19:44.000Z"},"_id":"65d40896ff05f1a47d1f2898","name":"Trận Chiến Tàn Khốc","slug":"tran-chien-tan-khoc","origin_name":"Land of Bad","thumb_url":"tran-chien-tan-khoc-thumb.jpg","poster_url":"tran-chien-tan-khoc-poster.jpg","year":2024}],"pathImage":"https://img.ophim12.cc/uploads/movies/","pagination":{"totalItems":25407,"totalItemsPerPage":24,"currentPage":3,"totalPages":1059}}