{"status":true,"items":[{"modified":{"time":"2022-05-17T16:54:33.000Z"},"_id":"6283d3459e983cdfde381c0c","name":"Tân Lương Sơn Bá - Chúc Anh Đài","origin_name":"Butterfly Lovers","thumb_url":"tan-luong-son-ba-chuc-anh-dai-thumb.jpg","poster_url":"tan-luong-son-ba-chuc-anh-dai-poster.jpg","slug":"tan-luong-son-ba-chuc-anh-dai","year":2017},{"modified":{"time":"2022-05-17T16:54:29.000Z"},"_id":"6283d3459e983cdfde381c02","name":"Miền Tây Hoang Dã","origin_name":"Wild Wild West","thumb_url":"mien-tay-hoang-da-thumb.jpg","poster_url":"mien-tay-hoang-da-poster.jpg","slug":"mien-tay-hoang-da","year":1999},{"modified":{"time":"2022-05-17T16:54:01.000Z"},"_id":"6283d3299e983cdfde381bdc","name":"Mãnh Long - Thần Long Đặc Cảnh","origin_name":"Dragon Squad","thumb_url":"manh-long-than-long-dac-canh-thumb.jpg","poster_url":"manh-long-than-long-dac-canh-poster.jpg","slug":"manh-long-than-long-dac-canh","year":2005},{"modified":{"time":"2022-05-17T16:53:15.000Z"},"_id":"6283d2f79e983cdfde381b5c","name":"Siêu Nhân Vũ Trụ Kyuranger","origin_name":"Uchu Sentai Kyuranger","thumb_url":"sieu-nhan-vu-tru-kyuranger-thumb.jpg","poster_url":"sieu-nhan-vu-tru-kyuranger-poster.jpg","slug":"sieu-nhan-vu-tru-kyuranger","year":2017},{"modified":{"time":"2022-05-17T16:53:12.000Z"},"_id":"6283d2f89e983cdfde381b67","name":"Lời Nguyền Sadako","origin_name":"Sadako 3D","thumb_url":"loi-nguyen-sadako-thumb.jpg","poster_url":"loi-nguyen-sadako-poster.jpg","slug":"loi-nguyen-sadako","year":2012},{"modified":{"time":"2022-05-17T16:52:24.000Z"},"_id":"6283d2c89e983cdfde381b27","name":"Tội Ác Của Dirty John","origin_name":"Dirty John, The Dirty Truth","thumb_url":"toi-ac-cua-dirty-john-thumb.jpg","poster_url":"toi-ac-cua-dirty-john-poster.jpg","slug":"toi-ac-cua-dirty-john","year":2019},{"modified":{"time":"2022-05-17T16:52:09.000Z"},"_id":"6283d2b99e983cdfde381b0f","name":"Hành Trình Của Con Tim","origin_name":"Sai Tarn Hua Jai","thumb_url":"hanh-trinh-cua-con-tim-thumb.jpg","poster_url":"hanh-trinh-cua-con-tim-poster.jpg","slug":"hanh-trinh-cua-con-tim","year":2017},{"modified":{"time":"2022-05-17T16:52:01.000Z"},"_id":"6283d2b19e983cdfde381afa","name":"Tiếng Than","origin_name":"The Wailing","thumb_url":"tieng-than-thumb.jpg","poster_url":"tieng-than-poster.jpg","slug":"tieng-than","year":2016},{"modified":{"time":"2022-05-17T16:51:23.000Z"},"_id":"6283d28b9e983cdfde381ad4","name":"Tầng Địa Ngục Thứ 9","origin_name":"The Ninth Gate","thumb_url":"tang-dia-nguc-thu-9-thumb.jpg","poster_url":"tang-dia-nguc-thu-9-poster.jpg","slug":"tang-dia-nguc-thu-9","year":1999},{"modified":{"time":"2022-05-17T16:48:58.000Z"},"_id":"6283d1fa9e983cdfde381a4e","name":"Bi Kịch Của Một Siêu Năng Lực Gia (Phần 2)","origin_name":"The Disastrous Life Of Saiki K (Season 2)","thumb_url":"bi-kich-cua-mot-sieu-nang-luc-gia-phan-2-thumb.jpg","poster_url":"bi-kich-cua-mot-sieu-nang-luc-gia-phan-2-poster.jpg","slug":"bi-kich-cua-mot-sieu-nang-luc-gia-phan-2","year":2018},{"modified":{"time":"2022-05-17T16:48:29.000Z"},"_id":"6283d1dd9e983cdfde381a07","name":"Lời Nguyền Sadako 2","origin_name":"Sadako 3D 2","thumb_url":"loi-nguyen-sadako-2-thumb.jpg","poster_url":"loi-nguyen-sadako-2-poster.jpg","slug":"loi-nguyen-sadako-2","year":2013},{"modified":{"time":"2022-05-17T16:48:11.000Z"},"_id":"6283d1cb9e983cdfde3819e0","name":"Bảy Cái Tôi","origin_name":"Kill Me Heal Me","thumb_url":"bay-cai-toi-thumb.jpg","poster_url":"bay-cai-toi-poster.jpg","slug":"bay-cai-toi","year":2017},{"modified":{"time":"2022-05-17T16:47:04.000Z"},"_id":"6283d1889e983cdfde3819a0","name":"Hướng Dẫn Sử Dụng Đàn Ông","origin_name":"This Is Not What I Expected","thumb_url":"huong-dan-su-dung-dan-ong-thumb.jpg","poster_url":"huong-dan-su-dung-dan-ong-poster.jpg","slug":"huong-dan-su-dung-dan-ong","year":2017},{"modified":{"time":"2022-05-17T16:46:09.000Z"},"_id":"6283d1519e983cdfde381970","name":"Hồi Chuông Tử Thần","origin_name":"Death Bell","thumb_url":"hoi-chuong-tu-than-thumb.jpg","poster_url":"hoi-chuong-tu-than-poster.jpg","slug":"hoi-chuong-tu-than","year":2008},{"modified":{"time":"2022-05-17T16:45:38.000Z"},"_id":"6283d1329e983cdfde381953","name":"Hoa Nở","origin_name":"Blow","thumb_url":"hoa-no-thumb.jpg","poster_url":"hoa-no-poster.jpg","slug":"hoa-no","year":2001},{"modified":{"time":"2022-05-17T16:45:31.000Z"},"_id":"6283d1269e983cdfde381939","name":"Xin Lỗi, Anh Yêu Em","origin_name":"Gomen, Aishiteru","thumb_url":"xin-loi-anh-yeu-em-2017-thumb.jpg","poster_url":"xin-loi-anh-yeu-em-2017-poster.jpg","slug":"xin-loi-anh-yeu-em-2017","year":2016},{"modified":{"time":"2022-05-17T16:45:09.000Z"},"_id":"6283d1159e983cdfde381917","name":"Hiệp Sĩ Không Đầu","origin_name":"Sleepy Hollow","thumb_url":"hiep-si-khong-dau-thumb.jpg","poster_url":"hiep-si-khong-dau-poster.jpg","slug":"hiep-si-khong-dau","year":1999},{"modified":{"time":"2022-05-17T16:44:38.000Z"},"_id":"6283d0f69e983cdfde381903","name":"Hàng Xóm Tôi Là Đặc Vụ","origin_name":"Keeping Up With The Joneses","thumb_url":"hang-xom-toi-la-dac-vu-thumb.jpg","poster_url":"hang-xom-toi-la-dac-vu-poster.jpg","slug":"hang-xom-toi-la-dac-vu","year":2016},{"modified":{"time":"2022-05-17T16:44:22.000Z"},"_id":"6283d0e69e983cdfde3818ec","name":"Vị Anh Hùng Cuối Cùng","origin_name":"Inuyashiki: Last Hero","thumb_url":"vi-anh-hung-cuoi-cung-thumb.jpg","poster_url":"vi-anh-hung-cuoi-cung-poster.jpg","slug":"vi-anh-hung-cuoi-cung","year":2017},{"modified":{"time":"2022-05-17T16:44:03.000Z"},"_id":"6283d0d39e983cdfde3818cd","name":"Điều Gì Đang Ăn Mòn Gilbert Grape","origin_name":"What's Eating Gilbert Grape","thumb_url":"dieu-gi-dang-an-mon-gilbert-grape-thumb.jpg","poster_url":"dieu-gi-dang-an-mon-gilbert-grape-poster.jpg","slug":"dieu-gi-dang-an-mon-gilbert-grape","year":1994},{"modified":{"time":"2022-05-17T16:43:21.000Z"},"_id":"6283d0a99e983cdfde3818a9","name":"Trò Chơi Sinh Tử","origin_name":"Ousama Game - King's Game","thumb_url":"tro-choi-sinh-tu-thumb.jpg","poster_url":"tro-choi-sinh-tu-poster.jpg","slug":"tro-choi-sinh-tu","year":2017},{"modified":{"time":"2022-05-17T16:43:07.000Z"},"_id":"6283d09b9e983cdfde381894","name":"Diệp Vấn Ngoại Truyện: Trương Thiên Chí","origin_name":"Master Z: Ip Man Legacy","thumb_url":"diep-van-ngoai-truyen-truong-thien-chi-thumb.jpg","poster_url":"diep-van-ngoai-truyen-truong-thien-chi-poster.jpg","slug":"diep-van-ngoai-truyen-truong-thien-chi","year":2018},{"modified":{"time":"2022-05-17T16:42:36.000Z"},"_id":"6283d07c9e983cdfde381879","name":"Hoa Tạ Hoa Phi Hoa Mãn Thiên","origin_name":"As Flowers Fade and Fly Across The Sky","thumb_url":"hoa-ta-hoa-phi-hoa-man-thien-thumb.jpg","poster_url":"hoa-ta-hoa-phi-hoa-man-thien-poster.jpg","slug":"hoa-ta-hoa-phi-hoa-man-thien","year":2017},{"modified":{"time":"2022-05-17T16:42:32.000Z"},"_id":"6283d0789e983cdfde38186c","name":"Đêm Tối Cuối Cùng Ở Địa Cầu","origin_name":"Long Day's Journey Into Night","thumb_url":"dem-toi-cuoi-cung-o-dia-cau-thumb.jpg","poster_url":"dem-toi-cuoi-cung-o-dia-cau-poster.jpg","slug":"dem-toi-cuoi-cung-o-dia-cau","year":2018}],"pathImage":"https://img.ophim12.cc/uploads/movies/","pagination":{"totalItems":25554,"totalItemsPerPage":24,"currentPage":990,"totalPages":1065}}