{"status":true,"items":[{"modified":{"time":"2024-03-16T09:12:42.000Z"},"_id":"659901477074f826ccbd9885","name":"Chặng đường Pon","slug":"chang-duong-pon","origin_name":"ぽんのみち","thumb_url":"chang-duong-pon-thumb.jpg","poster_url":"chang-duong-pon-poster.jpg","year":2024},{"modified":{"time":"2024-03-16T02:14:23.000Z"},"_id":"65f46f2fe5f40e2ffe100557","name":"Bàn tay sắt","slug":"ban-tay-sat","origin_name":"Iron Reign","thumb_url":"ban-tay-sat-thumb.jpg","poster_url":"ban-tay-sat-poster.jpg","year":2024},{"modified":{"time":"2024-03-16T00:39:23.000Z"},"_id":"65e217cde5f40e2ffe898728","name":"Thế Giới Tươi Đẹp","slug":"the-gioi-tuoi-dep","origin_name":"Wonderful World","thumb_url":"the-gioi-tuoi-dep-thumb.jpg","poster_url":"the-gioi-tuoi-dep-poster.jpg","year":2024},{"modified":{"time":"2024-03-16T00:38:00.000Z"},"_id":"65b4afb17074f826ccf3e5e3","name":"Tài Phiệt và Cảnh Sát","slug":"tai-phiet-va-canh-sat","origin_name":"Flex X Cop","thumb_url":"tai-phiet-va-canh-sat-thumb.jpg","poster_url":"tai-phiet-va-canh-sat-poster.jpg","year":2024},{"modified":{"time":"2024-03-16T00:06:06.000Z"},"_id":"65d0c700ff05f1a47d1ab142","name":"Halo (Phần 2)","slug":"halo-phan-2","origin_name":"Halo Season 2","thumb_url":"halo-phan-2-thumb.jpg","poster_url":"halo-phan-2-poster.jpg","year":2024},{"modified":{"time":"2024-03-15T23:29:50.000Z"},"_id":"65f47627f5295c8cd1a3a8a9","name":"Đoạt Kiêu","slug":"doat-kieu","origin_name":"Beauty Killer","thumb_url":"doat-kieu-thumb.jpg","poster_url":"doat-kieu-poster.jpg","year":2023},{"modified":{"time":"2024-03-15T22:04:53.000Z"},"_id":"65bcd6e4ff05f1a47d02367a","name":"Con Gái Ngài Đại Sứ","slug":"con-gai-ngai-dai-su","origin_name":"Sefirin Kizi","thumb_url":"con-gai-ngai-dai-su-thumb.jpg","poster_url":"con-gai-ngai-dai-su-poster.jpg","year":2019},{"modified":{"time":"2024-03-15T22:04:38.000Z"},"_id":"64147f7e72b9a838f842fcf9","name":"Chim Lửa","slug":"chim-lua-tho-nhi-ky","origin_name":"Ateş Kuşları","thumb_url":"chim-lua-tho-nhi-ky-thumb.jpg","poster_url":"chim-lua-tho-nhi-ky-poster.jpg","year":2023},{"modified":{"time":"2024-03-15T22:04:20.000Z"},"_id":"655af363aa7d07ce5c940435","name":"Cô Dâu Istanbul","slug":"co-dau-instabul","origin_name":"Istanbullu Gelin","thumb_url":"co-dau-instabul-thumb.jpg","poster_url":"co-dau-instabul-poster.jpg","year":2017},{"modified":{"time":"2024-03-15T22:03:57.000Z"},"_id":"6422921654695c9785d3b336","name":"Hoa Máu","slug":"hoa-mau","origin_name":"Kan Cicekleri","thumb_url":"hoa-mau-thumb.jpg","poster_url":"hoa-mau-poster.jpg","year":2022},{"modified":{"time":"2024-03-15T22:03:42.000Z"},"_id":"6404b7820fc1635bd467951c","name":"Cầm Tù","slug":"cam-tu","origin_name":"Esaret","thumb_url":"cam-tu-thumb.jpg","poster_url":"cam-tu-poster.jpg","year":2022},{"modified":{"time":"2024-03-15T19:08:59.000Z"},"_id":"64efe0ebf9e5c681860e4de4","name":"Hoa Gian Lệnh","slug":"hoa-gian-lenh","origin_name":"In Blossom","thumb_url":"hoa-gian-lenh-thumb.jpg","poster_url":"hoa-gian-lenh-poster.jpg","year":2023},{"modified":{"time":"2024-03-15T19:05:39.000Z"},"_id":"65f4398df5295c8cd1a1dd94","name":"Yellowstone","slug":"yellowstone","origin_name":"Yellowstone","thumb_url":"yellowstone-thumb.jpg","poster_url":"yellowstone-poster.jpg","year":2009},{"modified":{"time":"2024-03-15T19:03:31.000Z"},"_id":"65f43911e5f40e2ffe0e7192","name":"Điểm ngoặt: Bom nguyên tử và Chiến tranh Lạnh","slug":"diem-ngoat-bom-nguyen-tu-va-chien-tranh-lanh","origin_name":"Turning Point: The Bomb and the Cold War","thumb_url":"diem-ngoat-bom-nguyen-tu-va-chien-tranh-lanh-thumb.jpg","poster_url":"diem-ngoat-bom-nguyen-tu-va-chien-tranh-lanh-poster.jpg","year":2024},{"modified":{"time":"2024-03-15T18:46:06.000Z"},"_id":"65f1a7eff5295c8cd18fd42a","name":"Liệt Diễm","slug":"liet-diem","origin_name":"Burning Flames","thumb_url":"liet-diem-thumb.jpg","poster_url":"liet-diem-poster.jpg","year":2024},{"modified":{"time":"2024-03-15T18:40:23.000Z"},"_id":"65ec58afe5f40e2ffed4869f","name":"Cảm Ơn Em Đã Sưởi Ấm Anh","slug":"cam-on-em-da-suoi-am-anh","origin_name":"Angels Fall Sometimes","thumb_url":"cam-on-em-da-suoi-am-anh-thumb.jpg","poster_url":"cam-on-em-da-suoi-am-anh-poster.jpg","year":2024},{"modified":{"time":"2024-03-15T18:39:50.000Z"},"_id":"65f2f665e5f40e2ffe060bd3","name":"Cuộc Sống Gia Đình Nhỏ","slug":"cuoc-song-gia-dinh-nho","origin_name":"Simple Days","thumb_url":"cuoc-song-gia-dinh-nho-thumb.jpg","poster_url":"cuoc-song-gia-dinh-nho-poster.jpg","year":2024},{"modified":{"time":"2024-03-15T18:25:04.000Z"},"_id":"65e1b4a2f5295c8cd1196452","name":"Phi Trì Nhân Sinh","slug":"phi-tri-nhan-sinh-2024","origin_name":"Pegasus","thumb_url":"phi-tri-nhan-sinh-2024-thumb.jpg","poster_url":"phi-tri-nhan-sinh-2024-poster.jpg","year":2024},{"modified":{"time":"2024-03-15T18:18:05.000Z"},"_id":"65e19a6ae5f40e2ffe85451f","name":"Đừng Rung Động Vì Anh","slug":"dung-rung-dong-vi-anh","origin_name":"Everyone Loves Me","thumb_url":"dung-rung-dong-vi-anh-thumb.jpg","poster_url":"dung-rung-dong-vi-anh-poster.jpg","year":2024},{"modified":{"time":"2024-03-15T18:08:43.000Z"},"_id":"65df2428e5f40e2ffe72a059","name":"Vĩnh An Mộng","slug":"vinh-an-mong","origin_name":"Yongan Dream","thumb_url":"vinh-an-mong-thumb.jpg","poster_url":"vinh-an-mong-poster.jpg","year":2024},{"modified":{"time":"2024-03-15T17:55:13.000Z"},"_id":"65f425e1e5f40e2ffe0d7dec","name":"Gà nugget","slug":"ga-nugget","origin_name":"Chicken Nugget","thumb_url":"ga-nugget-thumb.jpg","poster_url":"ga-nugget-poster.jpg","year":2024},{"modified":{"time":"2024-03-15T17:12:59.000Z"},"_id":"65b37b3631d8a2b99ec63492","name":"Bá Chủ Bầu Trời","slug":"ba-chu-bau-troi","origin_name":"Masters of the Air","thumb_url":"ba-chu-bau-troi-thumb.jpg","poster_url":"ba-chu-bau-troi-poster.jpg","year":2024},{"modified":{"time":"2024-03-15T16:53:35.000Z"},"_id":"65f416aaf5295c8cd1a04847","name":"Tứ Trụ Vương: Người Thay Đổi Định Mệnh","slug":"tu-tru-vuong-nguoi-thay-doi-dinh-menh","origin_name":"The Destiny Changer","thumb_url":"tu-tru-vuong-nguoi-thay-doi-dinh-menh-thumb.jpg","poster_url":"tu-tru-vuong-nguoi-thay-doi-dinh-menh-poster.jpg","year":2024},{"modified":{"time":"2024-03-15T16:35:35.000Z"},"_id":"65f41667f5295c8cd1a04238","name":"Dark Winds (Phần 2)","slug":"dark-winds-phan-2","origin_name":"Dark Winds (Season 2)","thumb_url":"dark-winds-phan-2-thumb.jpg","poster_url":"dark-winds-phan-2-poster.jpg","year":2023}],"pathImage":"https://img.ophim12.cc/uploads/movies/","pagination":{"totalItems":25554,"totalItemsPerPage":24,"currentPage":1,"totalPages":1065}}