{"status":true,"items":[{"modified":{"time":"2022-02-24T08:39:10.400Z"},"_id":"6217442e4e98729b68222c98","name":"Very Ordinary Couple","origin_name":"Very Ordinary Couple","thumb_url":"very-ordinary-couple-thumb.jpg","slug":"very-ordinary-couple","year":2013,"poster_url":""},{"modified":{"time":"2022-02-24T08:37:47.972Z"},"_id":"621743db4e98729b68222c65","name":"Long Live the King","origin_name":"Long Live the King","thumb_url":"long-live-the-king-thumb.jpg","slug":"long-live-the-king","year":2019,"poster_url":""},{"modified":{"time":"2022-02-24T08:36:24.578Z"},"_id":"621743884e98729b68222c21","name":"Hữu Nhân Sổ: Kết Duyên Với Utsusemi","origin_name":"Natsume Yujin-cho the Movie: Ephemeral Bond","thumb_url":"huu-nhan-so-ket-duyen-voi-utsusemi-thumb.jpg","slug":"huu-nhan-so-ket-duyen-voi-utsusemi","year":2018,"poster_url":""},{"modified":{"time":"2022-02-24T08:35:51.711Z"},"_id":"621743674e98729b68222c0e","name":"Nỗi Ô Nhục Họ Cho","origin_name":"Untold Scandal","thumb_url":"noi-o-nhuc-ho-cho-thumb.jpg","slug":"noi-o-nhuc-ho-cho","year":2003,"poster_url":""},{"modified":{"time":"2022-02-24T08:35:31.585Z"},"_id":"621743534e98729b68222bfd","name":"Nữ Cảnh Sát Chìm","origin_name":"She&#x27;s On Duty","thumb_url":"nu-canh-sat-chim-thumb.jpg","slug":"nu-canh-sat-chim","year":2005,"poster_url":""},{"modified":{"time":"2022-02-24T08:35:09.030Z"},"_id":"6217433d4e98729b68222bec","name":"Bảy Ngày","origin_name":"Seven Days","thumb_url":"bay-ngay-thumb.jpg","slug":"bay-ngay","year":2007,"poster_url":""},{"modified":{"time":"2022-02-24T08:34:46.501Z"},"_id":"621743264e98729b68222bdb","name":"Thám Tử Phố Tàu 1","origin_name":"Detective Chinatown 1","thumb_url":"tham-tu-pho-tau-1-thumb.jpg","slug":"tham-tu-pho-tau-1","year":2015,"poster_url":""},{"modified":{"time":"2022-02-24T08:34:13.172Z"},"_id":"621743054e98729b68222bca","name":"Tuyết Tháng Tư","origin_name":"April Snow","thumb_url":"tuyet-thang-tu-thumb.jpg","slug":"tuyet-thang-tu","year":2005,"poster_url":""},{"modified":{"time":"2022-02-24T08:33:49.504Z"},"_id":"621742ed4e98729b68222bb9","name":"Bản Cam Kết","origin_name":"Commitment","thumb_url":"ban-cam-ket-thumb.jpg","slug":"ban-cam-ket","year":2013,"poster_url":""},{"modified":{"time":"2022-02-24T07:47:01.348Z"},"_id":"6216747c70b58bba6858b83d","name":"Lady J","origin_name":"Lady J","thumb_url":"lady-j-thumb.jpg","slug":"lady-j","year":2019,"poster_url":""},{"modified":{"time":"2022-02-24T07:45:51.725Z"},"_id":"621674f570b58bba6858b870","name":"Người Hầu","origin_name":"The Servant","thumb_url":"nguoi-hau-thumb.jpg","slug":"nguoi-hau","year":2010,"poster_url":""},{"modified":{"time":"2022-02-23T18:17:10.467Z"},"_id":"62167a264e98729b68222800","name":"Anh chàng hàng xóm","origin_name":"The Boy Next Door","thumb_url":"anh-chang-hang-xom-thumb.jpg","slug":"anh-chang-hang-xom","year":2015,"poster_url":""},{"modified":{"time":"2022-02-23T17:58:00.842Z"},"_id":"621675a870b58bba6858b8b5","name":"Tu Viện Downton","origin_name":"Downton Abbey","thumb_url":"tu-vien-downton-thumb.jpg","slug":"tu-vien-downton","year":2019,"poster_url":""},{"modified":{"time":"2022-02-23T17:55:56.874Z"},"_id":"6216752c70b58bba6858b892","name":"A Fortunate Man","origin_name":"A Fortunate Man","thumb_url":"a-fortunate-man-thumb.jpg","slug":"a-fortunate-man","year":2018,"poster_url":""},{"modified":{"time":"2022-02-23T17:51:49.083Z"},"_id":"6216742070b58bba6858b822","name":"Tình Yêu Luyến Ái","origin_name":"Vita & Virginia","thumb_url":"tinh-yeu-luyen-ai-thumb.jpg","slug":"tinh-yeu-luyen-ai","year":2019,"poster_url":""},{"modified":{"time":"2022-02-23T17:49:55.225Z"},"_id":"621673c370b58bba6858b80b","name":"Vương Triều Nhục Dục","origin_name":"Empire of Lust","thumb_url":"vuong-trieu-nhuc-duc-thumb.jpg","slug":"vuong-trieu-nhuc-duc","year":2015,"poster_url":""},{"modified":{"time":"2022-02-23T17:44:29.516Z"},"_id":"6216727d70b58bba6858b7d8","name":"Sát Thủ Thợ Máy","origin_name":"The Mechanic","thumb_url":"sat-thu-tho-may-thumb.jpg","slug":"sat-thu-tho-may","year":2011,"poster_url":""},{"modified":{"time":"2022-02-23T17:43:45.973Z"},"_id":"6216725170b58bba6858b7b9","name":"Thám Tử Giày Cao Gót","origin_name":"Man On High Heels","thumb_url":"tham-tu-giay-cao-got-thumb.jpg","slug":"tham-tu-giay-cao-got","year":2014,"poster_url":""},{"modified":{"time":"2022-02-23T17:43:06.251Z"},"_id":"6216722a70b58bba6858b7a8","name":"Năm Anh Em Siêu Nhân","origin_name":"Power Ranger","thumb_url":"nam-anh-em-sieu-nhan-thumb.jpg","slug":"nam-anh-em-sieu-nhan","year":2017,"poster_url":""},{"modified":{"time":"2022-02-23T17:42:34.154Z"},"_id":"6216720a70b58bba6858b797","name":"Cỗ Máy Sát Thủ","origin_name":"The Machine","thumb_url":"co-may-sat-thu-thumb.jpg","slug":"co-may-sat-thu","year":2013,"poster_url":""},{"modified":{"time":"2022-02-23T17:42:00.527Z"},"_id":"621671e870b58bba6858b786","name":"Nhà Trắng Thất Thủ: Kẻ  Phản Bội","origin_name":"Angel Has Fallen","thumb_url":"nha-trang-that-thu-ke-phan-boi-thumb.jpg","slug":"nha-trang-that-thu-ke-phan-boi","year":2019,"poster_url":""},{"modified":{"time":"2022-02-23T17:41:28.187Z"},"_id":"621671c870b58bba6858b775","name":"Thám Tử K: Bí Mật Đảo Hoang","origin_name":"Detective K: Secret of the Lost Island","thumb_url":"tham-tu-k-bi-mat-dao-hoang-thumb.jpg","slug":"tham-tu-k-bi-mat-dao-hoang","year":2015,"poster_url":""},{"modified":{"time":"2022-02-23T17:40:54.771Z"},"_id":"621671a670b58bba6858b764","name":"Trận Chiến Midway","origin_name":"Midway","thumb_url":"tran-chien-midway-thumb.jpg","slug":"tran-chien-midway","year":2019,"poster_url":""},{"modified":{"time":"2022-02-23T17:40:25.392Z"},"_id":"6216718970b58bba6858b753","name":"Thành Phố Tội Ác 2","origin_name":"Sin City: A Dame to Kill for","thumb_url":"thanh-pho-toi-ac-2-thumb.jpg","slug":"thanh-pho-toi-ac-2","year":2014,"poster_url":""}],"pathImage":"https://img.ophim12.cc/uploads/movies/","pagination":{"totalItems":25554,"totalItemsPerPage":24,"currentPage":1062,"totalPages":1065}}