{"status":true,"items":[{"modified":{"time":"2022-02-23T17:39:12.901Z"},"_id":"6216714070b58bba6858b731","name":"Kẻ Giết Thuê","origin_name":"Contract Killers","thumb_url":"ke-giet-thue-thumb.jpg","slug":"ke-giet-thue","year":2013,"poster_url":""},{"modified":{"time":"2022-02-23T17:38:48.391Z"},"_id":"6216712870b58bba6858b720","name":"Đôi Mắt Xám","origin_name":"Grey Eyes","thumb_url":"doi-mat-xam-thumb.jpg","slug":"doi-mat-xam","year":2018,"poster_url":""},{"modified":{"time":"2022-02-23T17:37:23.556Z"},"_id":"621670d370b58bba6858b6fe","name":"Tội Phạm","origin_name":"Criminal","thumb_url":"toi-pham-thumb.jpg","slug":"toi-pham","year":2016,"poster_url":""},{"modified":{"time":"2022-02-23T17:35:59.569Z"},"_id":"6216707f70b58bba6858b6dc","name":"Kinh Thiên Long Hổ Báo","origin_name":"Lethal Panther","thumb_url":"kinh-thien-long-ho-bao-thumb.jpg","slug":"kinh-thien-long-ho-bao","year":1991,"poster_url":""},{"modified":{"time":"2022-02-23T17:35:31.249Z"},"_id":"6216706370b58bba6858b6cb","name":"Siêu Nhân Mù","origin_name":"Daredevil","thumb_url":"sieu-nhan-mu-thumb.jpg","slug":"sieu-nhan-mu","year":2003,"poster_url":""},{"modified":{"time":"2022-02-23T17:33:22.945Z"},"_id":"62166fe270b58bba6858b687","name":"Vũ Khí Khiêu Gợi","origin_name":"Naked Weapon","thumb_url":"vu-khi-khieu-goi-thumb.jpg","slug":"vu-khi-khieu-goi","year":2002,"poster_url":""},{"modified":{"time":"2022-02-23T17:32:43.234Z"},"_id":"62166fbb70b58bba6858b676","name":"Âm Mưu Khủng Bố","origin_name":"Bloody Mission","thumb_url":"am-muu-khung-bo-thumb.jpg","slug":"am-muu-khung-bo","year":1982,"poster_url":""},{"modified":{"time":"2022-02-23T17:30:23.357Z"},"_id":"62166f2f70b58bba6858b641","name":"Chuyến Tàu Khủng Bố","origin_name":"Red Line","thumb_url":"chuyen-tau-khung-bo-thumb.jpg","slug":"chuyen-tau-khung-bo","year":2016,"poster_url":""},{"modified":{"time":"2022-02-23T17:27:25.320Z"},"_id":"62166e7d70b58bba6858b5ed","name":"Hành Tinh Chết","origin_name":"Arrowhead","thumb_url":"hanh-tinh-chet-thumb.jpg","slug":"hanh-tinh-chet","year":2016,"poster_url":""},{"modified":{"time":"2022-02-23T17:26:52.227Z"},"_id":"62166e5c70b58bba6858b5dc","name":"Huyền Thoại Ben Hall","origin_name":"The Legend of Ben Hall","thumb_url":"huyen-thoai-ben-hall-thumb.jpg","slug":"huyen-thoai-ben-hall","year":2017,"poster_url":""},{"modified":{"time":"2022-02-23T17:25:06.526Z"},"_id":"62166df270b58bba6858b5a9","name":"Liên Hoàn Pháo","origin_name":"Magnum Thunderbolt","thumb_url":"lien-hoan-phao-thumb.jpg","slug":"lien-hoan-phao","year":1985,"poster_url":""},{"modified":{"time":"2022-02-23T17:24:30.233Z"},"_id":"62166dce70b58bba6858b598","name":"Mạng Đổi Mạng","origin_name":"John Wick","thumb_url":"mang-doi-mang-thumb.jpg","slug":"mang-doi-mang","year":2014,"poster_url":""},{"modified":{"time":"2022-02-23T17:23:54.961Z"},"_id":"62166daa70b58bba6858b587","name":"Nữ Điệp Viên Bất Diệt","origin_name":"Bond Girls Are Forever (2012)","thumb_url":"nu-diep-vien-bat-diet-thumb.jpg","slug":"nu-diep-vien-bat-diet","year":2012,"poster_url":""},{"modified":{"time":"2022-02-23T17:22:57.110Z"},"_id":"62166d7170b58bba6858b565","name":"Chiến Binh","origin_name":"Warrior","thumb_url":"chien-binh-thumb.jpg","slug":"chien-binh","year":2011,"poster_url":""},{"modified":{"time":"2022-02-23T17:21:35.622Z"},"_id":"62166d1f70b58bba6858b543","name":"Gia Đình Đại Chiến","origin_name":"Fighting with My Family","thumb_url":"gia-dinh-dai-chien-thumb.jpg","slug":"gia-dinh-dai-chien","year":2019,"poster_url":""},{"modified":{"time":"2022-02-23T17:21:09.273Z"},"_id":"62166d0570b58bba6858b532","name":"Phi Vụ 999","origin_name":"Triple 9","thumb_url":"phi-vu-999-thumb.jpg","slug":"phi-vu-999","year":2015,"poster_url":""},{"modified":{"time":"2022-02-23T17:20:36.212Z"},"_id":"62166ce470b58bba6858b521","name":"Sát Thủ Lưu Vong","origin_name":"Exiled","thumb_url":"sat-thu-luu-vong-thumb.jpg","slug":"sat-thu-luu-vong","year":2006,"poster_url":""},{"modified":{"time":"2022-02-23T17:19:34.353Z"},"_id":"62166ca670b58bba6858b50c","name":"Một Nắm Chì","origin_name":"A Fistful Of Lead","thumb_url":"mot-nam-chi-thumb.jpg","slug":"mot-nam-chi","year":2018,"poster_url":""},{"modified":{"time":"2022-02-23T17:16:27.966Z"},"_id":"62166beb70b58bba6858b4b2","name":"22 Viên Đạn","origin_name":"22 Bullets","thumb_url":"22-vien-dan-thumb.jpg","slug":"22-vien-dan","year":2010,"poster_url":""},{"modified":{"time":"2022-02-23T17:15:50.442Z"},"_id":"62166bc670b58bba6858b4a1","name":"Đám Trẻ Hư Hỏng Ở Học Viện Crestview","origin_name":"Bad Kids Of Crestview Academy","thumb_url":"dam-tre-hu-hong-o-hoc-vien-crestview-thumb.jpg","slug":"dam-tre-hu-hong-o-hoc-vien-crestview","year":2017,"poster_url":""},{"modified":{"time":"2022-02-23T17:15:02.941Z"},"_id":"62166b9670b58bba6858b490","name":"Chuyến Du Lịch Thảm Họa","origin_name":"Thailand Only","thumb_url":"chuyen-du-lich-tham-hoa-thumb.jpg","slug":"chuyen-du-lich-tham-hoa","year":2017,"poster_url":""},{"modified":{"time":"2022-02-23T17:14:01.571Z"},"_id":"62166b5970b58bba6858b47f","name":"Điệp Viên 007: Những Điều Chưa Kể","origin_name":"Everything or Nothing: Untold Story 007","thumb_url":"diep-vien-007-nhung-dieu-chua-ke-thumb.jpg","slug":"diep-vien-007-nhung-dieu-chua-ke","year":2012,"poster_url":""},{"modified":{"time":"2022-02-23T17:13:20.521Z"},"_id":"62166b3070b58bba6858b464","name":"Người Chết 2","origin_name":"Dead Men 2","thumb_url":"nguoi-chet-2-thumb.jpg","slug":"nguoi-chet-2","year":2016,"poster_url":""},{"modified":{"time":"2022-02-23T17:12:36.351Z"},"_id":"62166b0470b58bba6858b453","name":"Người Hùng Khun Pan 2","origin_name":"Khun Pan 2","thumb_url":"nguoi-hung-khun-pan-2-thumb.jpg","slug":"nguoi-hung-khun-pan-2","year":2018,"poster_url":""}],"pathImage":"https://img.ophim12.cc/uploads/movies/","pagination":{"totalItems":25554,"totalItemsPerPage":24,"currentPage":1063,"totalPages":1065}}