{"status":true,"items":[{"modified":{"time":"2022-12-08T10:41:53.000Z"},"_id":"63915d01be31c1c97dc523b5","name":"Tình Duyên Muôn Kiếp","origin_name":"The Ghost Story: Love Redemption","thumb_url":"tinh-duyen-muon-kiep-thumb.jpg","poster_url":"tinh-duyen-muon-kiep-poster.jpg","slug":"tinh-duyen-muon-kiep","year":2020},{"modified":{"time":"2022-12-08T10:41:19.000Z"},"_id":"63915cdfbe31c1c97dc52219","name":"Đại Ảo Thuật Sư","origin_name":"The Great Illusionist","thumb_url":"dai-ao-thuat-su-thumb.jpg","poster_url":"dai-ao-thuat-su-poster.jpg","slug":"dai-ao-thuat-su","year":2020},{"modified":{"time":"2022-12-08T10:40:44.000Z"},"_id":"63915cbcbe31c1c97dc5201d","name":"Đại Ngư","origin_name":"Giant Fish","thumb_url":"dai-ngu-thumb.jpg","poster_url":"dai-ngu-poster.jpg","slug":"dai-ngu","year":2020},{"modified":{"time":"2022-12-08T10:40:18.000Z"},"_id":"63915ca2be31c1c97dc51e45","name":"Bậc Thầy Hài Hước","origin_name":"Crazy Old Father","thumb_url":"bac-thay-hai-huoc-thumb.jpg","poster_url":"bac-thay-hai-huoc-poster.jpg","slug":"bac-thay-hai-huoc","year":2020},{"modified":{"time":"2022-12-08T10:39:38.000Z"},"_id":"63915c7abe31c1c97dc51c64","name":"Bí Mật Công Chúa","origin_name":"The Secret Of Princess","thumb_url":"bi-mat-cong-chua-thumb.jpg","poster_url":"bi-mat-cong-chua-poster.jpg","slug":"bi-mat-cong-chua","year":2019},{"modified":{"time":"2022-12-08T10:38:52.000Z"},"_id":"63915c4cbe31c1c97dc51a08","name":"Vĩnh Viễn","origin_name":"Permanent","thumb_url":"vinh-vien-thumb.jpg","poster_url":"vinh-vien-poster.jpg","slug":"vinh-vien","year":2014},{"modified":{"time":"2022-12-08T10:37:59.000Z"},"_id":"63915c17be31c1c97dc51721","name":"Kẻ Săn Mộ","origin_name":"Collectors","thumb_url":"ke-san-mo-thumb.jpg","poster_url":"ke-san-mo-poster.jpg","slug":"ke-san-mo","year":2020},{"modified":{"time":"2022-12-08T10:37:37.000Z"},"_id":"63915c01be31c1c97dc51655","name":"Bộ Đôi Siêu Quậy","origin_name":"Adventure Boyz","thumb_url":"bo-doi-sieu-quay-thumb.jpg","poster_url":"bo-doi-sieu-quay-poster.jpg","slug":"bo-doi-sieu-quay","year":2019},{"modified":{"time":"2022-12-08T10:36:46.000Z"},"_id":"63915bcebe31c1c97dc513bc","name":"Quý Ông Trứng Rán","origin_name":"Mr.Omelet","thumb_url":"quy-ong-trung-ran-thumb.jpg","poster_url":"quy-ong-trung-ran-poster.jpg","slug":"quy-ong-trung-ran","year":2017},{"modified":{"time":"2022-12-08T10:34:54.000Z"},"_id":"63915b5ebe31c1c97dc50e48","name":"Mickey Mạnh Mẽ","origin_name":"Mickey and The Bea","thumb_url":"mickey-manh-me-thumb.jpg","poster_url":"mickey-manh-me-poster.jpg","slug":"mickey-manh-me","year":2019},{"modified":{"time":"2022-12-08T10:33:55.000Z"},"_id":"63915b23be31c1c97dc50b65","name":"Hành Trình Của Song Ci","origin_name":"Legal Medical Expert Song Ci","thumb_url":"hanh-trinh-cua-song-ci-thumb.jpg","poster_url":"hanh-trinh-cua-song-ci-poster.jpg","slug":"hanh-trinh-cua-song-ci","year":2020},{"modified":{"time":"2022-12-08T10:33:15.000Z"},"_id":"63915afbbe31c1c97dc509b0","name":"Giáng Sinh Hồng","origin_name":"A very Pink Christmas","thumb_url":"giang-sinh-hong-thumb.jpg","poster_url":"giang-sinh-hong-poster.jpg","slug":"giang-sinh-hong","year":2011},{"modified":{"time":"2022-12-08T10:32:31.000Z"},"_id":"63915acfbe31c1c97dc50772","name":"Hơn Cả Một Chuyến Đi","origin_name":"Come As You Are","thumb_url":"hon-ca-mot-chuyen-di-thumb.jpg","poster_url":"hon-ca-mot-chuyen-di-poster.jpg","slug":"hon-ca-mot-chuyen-di","year":2019},{"modified":{"time":"2022-12-07T16:57:35.000Z"},"_id":"639060fdbe31c1c97db7fd2a","name":"Cá Sấu Khổng Lồ 2","origin_name":"Mega Crocodile 2","thumb_url":"ca-sau-khong-lo-2-thumb.jpg","poster_url":"ca-sau-khong-lo-2-poster.jpg","slug":"ca-sau-khong-lo-2","year":2022},{"modified":{"time":"2022-12-07T16:14:28.000Z"},"_id":"622f4425c3924897e5fd664a","name":"Thành Phố Tội Lỗi (Phần 5)","origin_name":"Gotham (Season 5)","thumb_url":"thanh-pho-toi-loi-phan-5-thumb.jpg","slug":"thanh-pho-toi-loi-phan-5","year":2019,"poster_url":"thanh-pho-toi-loi-phan-5-poster.jpg"},{"modified":{"time":"2022-12-07T16:13:59.000Z"},"_id":"622f440ec3924897e5fd6637","name":"Thành Phố Tội Lỗi (Phần 4)","origin_name":"Gotham (Season 4)","thumb_url":"thanh-pho-toi-loi-phan-4-thumb.jpg","slug":"thanh-pho-toi-loi-phan-4","year":2017,"poster_url":"thanh-pho-toi-loi-phan-4-poster.jpg"},{"modified":{"time":"2022-12-07T16:13:24.000Z"},"_id":"622f43f4c3924897e5fd660f","name":"Thành phố tội lỗi (Phần 3)","origin_name":"Gotham (Season 3)","thumb_url":"thanh-pho-toi-loi-phan-3-thumb.jpg","slug":"thanh-pho-toi-loi-phan-3","year":2016,"poster_url":"thanh-pho-toi-loi-phan-3-poster.jpg"},{"modified":{"time":"2022-12-07T16:12:52.000Z"},"_id":"622f43cac3924897e5fd65a3","name":"Thành phố tội lỗi (Phần 2)","origin_name":"Gotham (Season 2)","thumb_url":"thanh-pho-toi-loi-phan-2-thumb.jpg","slug":"thanh-pho-toi-loi-phan-2","year":2015,"poster_url":"thanh-pho-toi-loi-phan-2-poster.jpg"},{"modified":{"time":"2022-12-07T16:12:14.000Z"},"_id":"622f43b3c3924897e5fd657c","name":"Thành phố tội lỗi (Phần 1)","origin_name":"Gotham (Season 1)","thumb_url":"thanh-pho-toi-loi-phan-1-thumb.jpg","slug":"thanh-pho-toi-loi-phan-1","year":2014,"poster_url":"thanh-pho-toi-loi-phan-1-poster.jpg"},{"modified":{"time":"2022-12-07T16:11:30.000Z"},"_id":"622f4130c3924897e5fd627d","name":"Chúa Tể Địa Ngục (Phần 6)","origin_name":"Lucifer (Season 6)","thumb_url":"chua-te-dia-nguc-phan-6-thumb.jpg","slug":"chua-te-dia-nguc-phan-6","year":2021,"poster_url":"chua-te-dia-nguc-phan-6-poster.jpg"},{"modified":{"time":"2022-12-07T16:10:50.000Z"},"_id":"622f4112c3924897e5fd6236","name":"Chúa Tể Địa Ngục (Phần 5)","origin_name":"Lucifer (Season 5)","thumb_url":"chua-te-dia-nguc-phan-5-thumb.jpg","slug":"chua-te-dia-nguc-phan-5","year":2020,"poster_url":"chua-te-dia-nguc-phan-5-poster.jpg"},{"modified":{"time":"2022-12-07T16:10:18.000Z"},"_id":"622f40fcc3924897e5fd6202","name":"Chúa Tể Địa Ngục (Phần 4)","origin_name":"Lucifer (Season 4)","thumb_url":"chua-te-dia-nguc-phan-4-thumb.jpg","slug":"chua-te-dia-nguc-phan-4","year":2019,"poster_url":"chua-te-dia-nguc-phan-4-poster.jpg"},{"modified":{"time":"2022-12-07T16:09:41.000Z"},"_id":"622f40e5c3924897e5fd61b4","name":"Chúa Tể Địa Ngục (Phần 3)","origin_name":"Lucifer (Season 3)","thumb_url":"chua-te-dia-nguc-phan-3-thumb.jpg","slug":"chua-te-dia-nguc-phan-3","year":2017,"poster_url":"chua-te-dia-nguc-phan-3-poster.jpg"},{"modified":{"time":"2022-12-07T16:09:09.000Z"},"_id":"622f40c7c3924897e5fd617f","name":"Chúa tể địa ngục (Phần 2)","origin_name":"Lucifer (Season 2)","thumb_url":"chua-te-dia-nguc-phan-2-thumb.jpg","slug":"chua-te-dia-nguc-phan-2","year":2016,"poster_url":"chua-te-dia-nguc-phan-2-poster.jpg"}],"pathImage":"https://img.ophim12.cc/uploads/movies/","pagination":{"totalItems":25554,"totalItemsPerPage":24,"currentPage":663,"totalPages":1065}}