{"status":true,"items":[{"modified":{"time":"2023-06-08T18:08:58.000Z"},"_id":"622f0fefc3924897e5fd5139","name":"Phù Thủy Vượt Thời Gian (Phần 1)","origin_name":"Always a Witch (Season 1)","thumb_url":"phu-thuy-vuot-thoi-gian-phan-1-thumb.jpg","slug":"phu-thuy-vuot-thoi-gian-phan-1","year":2019,"poster_url":"phu-thuy-vuot-thoi-gian-phan-1-poster.jpg"},{"modified":{"time":"2023-06-08T18:08:43.000Z"},"_id":"622c88482c855970a7f99f0b","name":"Trò Chơi Vương Quyền 8","origin_name":"Game of Thrones (Season 8)","thumb_url":"tro-choi-vuong-quyen-8-thumb.jpg","slug":"tro-choi-vuong-quyen-8","year":2019,"poster_url":"tro-choi-vuong-quyen-8-poster.jpg"},{"modified":{"time":"2023-06-08T18:08:32.000Z"},"_id":"622c2504eb35da19972e8787","name":"Nhật ký tội phạm: Ứng cử viên","origin_name":"Crime Diaries: The Candidate","thumb_url":"nhat-ky-toi-pham-ung-cu-vien-thumb.jpg","slug":"nhat-ky-toi-pham-ung-cu-vien","year":2019,"poster_url":"nhat-ky-toi-pham-ung-cu-vien-poster.jpg"},{"modified":{"time":"2023-06-08T18:08:20.000Z"},"_id":"622c18cfeb35da19972e869a","name":"Khu tôi sống (Phần 2)","origin_name":"On My Block (Season 2)","thumb_url":"khu-toi-song-phan-2-thumb.jpg","slug":"khu-toi-song-phan-2","year":2019,"poster_url":"khu-toi-song-phan-2-poster.jpg"},{"modified":{"time":"2023-06-08T18:08:06.000Z"},"_id":"622c1072eb35da19972e864d","name":"Học viện Greenhouse (Phần 3)","origin_name":"Greenhouse Academy (Season 3)","thumb_url":"hoc-vien-greenhouse-phan-3-thumb.jpg","slug":"hoc-vien-greenhouse-phan-3","year":2019,"poster_url":"hoc-vien-greenhouse-phan-3-poster.jpg"},{"modified":{"time":"2023-06-08T18:07:56.000Z"},"_id":"622bea67eb35da19972e84a5","name":"Chính trị gia (Phần 1)","origin_name":"The Politician (Season 1)","thumb_url":"chinh-tri-gia-phan-1-thumb.jpg","slug":"chinh-tri-gia-phan-1","year":2019,"poster_url":"chinh-tri-gia-phan-1-poster.jpg"},{"modified":{"time":"2023-06-08T18:07:44.000Z"},"_id":"622aefa6eb35da19972e6a8f","name":"CAROLE & TUESDAY (Phần 2)","origin_name":"CAROLE & TUESDAY (Season 2)","thumb_url":"carole-tuesday-phan-2-thumb.jpg","slug":"carole-tuesday-phan-2","year":2019,"poster_url":"carole-tuesday-phan-2-poster.jpg"},{"modified":{"time":"2023-06-08T18:07:08.000Z"},"_id":"622aeb2aeb35da19972e6a62","name":"CAROLE & TUESDAY (Phần 1)","origin_name":"CAROLE & TUESDAY (Season 1)","thumb_url":"carole-tuesday-phan-1-thumb.jpg","slug":"carole-tuesday-phan-1","year":2019,"poster_url":"carole-tuesday-phan-1-poster.jpg"},{"modified":{"time":"2023-06-08T18:06:56.000Z"},"_id":"622ae758eb35da19972e6993","name":"Xếp hạng sát nhân","origin_name":"Killer Ratings","thumb_url":"xep-hang-sat-nhan-thumb.jpg","slug":"xep-hang-sat-nhan","year":2019,"poster_url":"xep-hang-sat-nhan-poster.jpg"},{"modified":{"time":"2023-06-08T16:58:39.000Z"},"_id":"6481a64f119a8f27d3cc3670","name":"Tôi Đã Chứng Kiến Người Yêu Ngoại Tình","slug":"toi-da-chung-kien-nguoi-yeu-ngoai-tinh","origin_name":"바람난 애인을 목격한 뒤 팬티를 벗었다","thumb_url":"toi-da-chung-kien-nguoi-yeu-ngoai-tinh-thumb.jpg","poster_url":"toi-da-chung-kien-nguoi-yeu-ngoai-tinh-poster.jpg","year":2023},{"modified":{"time":"2023-06-08T16:56:50.000Z"},"_id":"6481a5e26231cbfdd95462e6","name":"Bài Học Cuối Cùng","slug":"bai-hoc-cuoi-cung","origin_name":"막장자매 클라쓰","thumb_url":"bai-hoc-cuoi-cung-thumb.jpg","poster_url":"bai-hoc-cuoi-cung-poster.jpg","year":2020},{"modified":{"time":"2023-06-08T12:29:59.000Z"},"_id":"64672288119a8f27d3c54cf1","name":"Star Struck: Truy Tinh","slug":"star-struck-truy-tinh","origin_name":"Star Struck","thumb_url":"star-struck-truy-tinh-thumb.jpg","poster_url":"star-struck-truy-tinh-poster.jpg","year":2023},{"modified":{"time":"2023-06-08T01:20:51.000Z"},"_id":"63e0dc21caf0f6e22ae634b9","name":"Mãn giang hồng","origin_name":"Full River Red","thumb_url":"man-giang-hong-thumb.jpg","poster_url":"man-giang-hong-poster.jpg","slug":"man-giang-hong","year":2023},{"modified":{"time":"2023-06-08T00:43:40.000Z"},"_id":"6252dcfcb89e109508081f62","name":"Xác Sống Đáng Sợ (Phần 4)","origin_name":"Fear The Walking Dead (Season 4)","thumb_url":"am-anh-xac-song-phan-4-thumb.jpg","slug":"am-anh-xac-song-phan-4","year":2017,"poster_url":"am-anh-xac-song-phan-4-poster.jpg"},{"modified":{"time":"2023-06-08T00:43:12.000Z"},"_id":"6252dd35b89e109508081f87","name":"Xác Sống Đáng Sợ (Phần 5)","origin_name":"Fear The Walking Dead (Season 5)","thumb_url":"am-anh-xac-song-phan-5-thumb.jpg","slug":"am-anh-xac-song-phan-5","year":2019,"poster_url":"am-anh-xac-song-phan-5-poster.jpg"},{"modified":{"time":"2023-06-08T00:43:09.000Z"},"_id":"6252dd67b89e109508081fb3","name":"Xác Sống Đáng Sợ (Phần 6)","origin_name":"Fear The Walking Dead (Season 6)","thumb_url":"am-anh-xac-song-phan-6-thumb.jpg","slug":"am-anh-xac-song-phan-6","year":2020,"poster_url":"am-anh-xac-song-phan-6-poster.jpg"},{"modified":{"time":"2023-06-08T00:34:39.000Z"},"_id":"6480bfaf119a8f27d3cc1343","name":"Thế Thân","slug":"the-than-2022","origin_name":"The Other Child","thumb_url":"the-than-2022-thumb.jpg","poster_url":"the-than-2022-poster.jpg","year":2022},{"modified":{"time":"2023-06-08T00:33:26.000Z"},"_id":"6480bf669b6b2c58a9fd49dd","name":"Ngày mới tốt lành","slug":"ngay-moi-tot-lanh","origin_name":"Good morning","thumb_url":"ngay-moi-tot-lanh-thumb.jpg","poster_url":"ngay-moi-tot-lanh-poster.jpg","year":2022},{"modified":{"time":"2023-06-08T00:31:44.000Z"},"_id":"6480bf00119a8f27d3cc11d0","name":"Không Nhà","slug":"khong-nha","origin_name":"Homeless","thumb_url":"khong-nha-thumb.jpg","poster_url":"khong-nha-poster.jpg","year":2022},{"modified":{"time":"2023-06-08T00:29:32.000Z"},"_id":"6480be7c0fba73ffd2e961d5","name":"Arnold","slug":"arnold","origin_name":"Arnold","thumb_url":"arnold-thumb.jpg","poster_url":"arnold-poster.jpg","year":2023},{"modified":{"time":"2023-06-08T00:28:14.000Z"},"_id":"63c0a9c97e5c0d5397935fa5","name":"Star Wars: Biệt Đội Nhân Bản Đặc Biệt (Phần 2)","origin_name":"Star Wars: The Bad Batch (Season 2)","thumb_url":"star-wars-biet-doi-nhan-ban-dac-biet-phan-2-thumb.jpg","poster_url":"star-wars-biet-doi-nhan-ban-dac-biet-phan-2-poster.jpg","slug":"star-wars-biet-doi-nhan-ban-dac-biet-phan-2","year":2023},{"modified":{"time":"2023-06-08T00:27:59.000Z"},"_id":"64806a3b0fba73ffd2e928b8","name":"Yêu Em Không Nói Cũng Hiểu","slug":"yeu-em-khong-noi-cung-hieu","origin_name":"Love You Self-evident","thumb_url":"yeu-em-khong-noi-cung-hieu-thumb.jpg","poster_url":"yeu-em-khong-noi-cung-hieu-poster.jpg","year":2023},{"modified":{"time":"2023-06-08T00:27:04.000Z"},"_id":"646f3a76bde31827f67dedd0","name":"Tối hậu thư: Tình yêu queer","slug":"toi-hau-thu-tinh-yeu-queer","origin_name":"The Ultimatum: Queer Love","thumb_url":"toi-hau-thu-tinh-yeu-queer-thumb.jpg","poster_url":"toi-hau-thu-tinh-yeu-queer-poster.jpg","year":2023},{"modified":{"time":"2023-06-07T21:12:30.000Z"},"_id":"646309776231cbfdd94c358b","name":"Hậu Lãng - Gen Z","slug":"hau-lang","origin_name":"The Waves Behind","thumb_url":"hau-lang-thumb.jpg","poster_url":"hau-lang-poster.jpg","year":2023}],"pathImage":"https://img.ophim12.cc/uploads/movies/","pagination":{"totalItems":25407,"totalItemsPerPage":24,"currentPage":378,"totalPages":1059}}