{"status":true,"items":[{"modified":{"time":"2024-02-15T15:37:25.000Z"},"_id":"65c07f54ff05f1a47d079cab","name":"Chỉ Là Chồng Sắp Cưới","slug":"chi-la-chong-sap-cuoi","origin_name":"Life Is Drama","thumb_url":"chi-la-chong-sap-cuoi-thumb.jpg","poster_url":"chi-la-chong-sap-cuoi-poster.jpg","year":2024},{"modified":{"time":"2024-02-15T10:48:52.000Z"},"_id":"65b7794d31d8a2b99ecbc97d","name":"Không Biết Cốt Truyện Cũng Không Sao","slug":"khong-biet-cot-truyen-cung-khong-sao","origin_name":"It Doesn't Matter if You Don't Know the Plot","thumb_url":"khong-biet-cot-truyen-cung-khong-sao-thumb.jpg","poster_url":"khong-biet-cot-truyen-cung-khong-sao-poster.jpg","year":2024},{"modified":{"time":"2024-02-13T20:51:21.000Z"},"_id":"65a8fff27074f826cce2cde3","name":"Kỳ Kim Triêu","slug":"ky-kim-trieu","origin_name":"Sword and Fairy","thumb_url":"ky-kim-trieu-thumb.jpg","poster_url":"ky-kim-trieu-poster.jpg","year":2024},{"modified":{"time":"2024-02-13T20:30:56.000Z"},"_id":"65bca0995540d59e3fdcc07e","name":"Cô Ấy Độc Nhất Hữu Nhị","slug":"co-ay-doc-nhat-huu-nhi","origin_name":"My Special Girl","thumb_url":"co-ay-doc-nhat-huu-nhi-thumb.jpg","poster_url":"co-ay-doc-nhat-huu-nhi-poster.jpg","year":2024},{"modified":{"time":"2024-02-11T15:46:35.000Z"},"_id":"65c63422ff05f1a47d0eb2e3","name":"Nghịch Lý Kẻ Sát Nhân","slug":"nghich-ly-ke-sat-nhan","origin_name":"A Killer Paradox","thumb_url":"nghich-ly-ke-sat-nhan-thumb.jpg","poster_url":"nghich-ly-ke-sat-nhan-poster.jpg","year":2024},{"modified":{"time":"2024-02-11T15:46:24.000Z"},"_id":"65282f8460ad693b7ca4fd9f","name":"Có Thuốc Trị Mùa 2","slug":"co-thuoc-tri-mua-2","origin_name":"Are You OK? Season 2","thumb_url":"co-thuoc-tri-mua-2-thumb.jpg","poster_url":"co-thuoc-tri-mua-2-poster.jpg","year":2023},{"modified":{"time":"2024-02-11T14:43:37.000Z"},"_id":"65c24a115540d59e3fe55956","name":"Tầng 19","slug":"tang-19","origin_name":"19th Floor","thumb_url":"tang-19-thumb.jpg","poster_url":"tang-19-poster.jpg","year":2024},{"modified":{"time":"2024-02-11T13:23:48.000Z"},"_id":"65c635305540d59e3fe9b946","name":"Ác Nữ","slug":"ac-nu","origin_name":"Lost in Perfection","thumb_url":"ac-nu-thumb.jpg","poster_url":"ac-nu-poster.jpg","year":2023},{"modified":{"time":"2024-02-10T15:53:55.000Z"},"_id":"65b1e73031d8a2b99ec38ffa","name":"Tướng Quân Ở Dưới","slug":"tuong-quan-o-duoi","origin_name":"My Lady General","thumb_url":"tuong-quan-o-duoi-thumb.jpg","poster_url":"tuong-quan-o-duoi-poster.jpg","year":2023},{"modified":{"time":"2024-02-10T14:57:33.000Z"},"_id":"6224e6f8eb35da19972d8761","name":"Lập nghiệp đi, tuổi trẻ","origin_name":"Start A Business! Guy","thumb_url":"lap-nghiep-di-tuoi-tre-thumb.jpg","slug":"lap-nghiep-di-tuoi-tre","year":2017,"poster_url":"lap-nghiep-di-tuoi-tre-poster.jpg"},{"modified":{"time":"2024-02-10T14:54:22.000Z"},"_id":"6224e6eaeb35da19972d874b","name":"Liên hoan phim trong làng","origin_name":"Film Festival in Village","thumb_url":"lien-hoan-phim-trong-lang-thumb.jpg","slug":"lien-hoan-phim-trong-lang","year":2018,"poster_url":"lien-hoan-phim-trong-lang-poster.jpg"},{"modified":{"time":"2024-02-10T14:54:09.000Z"},"_id":"6224e6e3eb35da19972d873e","name":"Thôn Yên","origin_name":"The New Arrival","thumb_url":"thon-yen-thumb.jpg","slug":"thon-yen","year":2017,"poster_url":"thon-yen-poster.jpg"},{"modified":{"time":"2024-02-10T14:53:51.000Z"},"_id":"6224e6dbeb35da19972d872c","name":"Liên minh cướp","origin_name":"Robber Union","thumb_url":"lien-minh-cuop-thumb.jpg","slug":"lien-minh-cuop","year":2018,"poster_url":"lien-minh-cuop-poster.jpg"},{"modified":{"time":"2024-02-10T14:53:34.000Z"},"_id":"6224e6cceb35da19972d871a","name":"Mẹ ghẻ 8x của 9x","origin_name":"My Stepmother","thumb_url":"me-ghe-8x-cua-9x-thumb.jpg","slug":"me-ghe-8x-cua-9x","year":2018,"poster_url":"me-ghe-8x-cua-9x-poster.jpg"},{"modified":{"time":"2024-02-10T14:53:23.000Z"},"_id":"6224e6baeb35da19972d86f9","name":"Mê tình N tiếng","origin_name":"Start over Night","thumb_url":"me-tinh-n-tieng-thumb.jpg","slug":"me-tinh-n-tieng","year":2017,"poster_url":"me-tinh-n-tieng-poster.jpg"},{"modified":{"time":"2024-02-10T14:53:12.000Z"},"_id":"6224e6c1eb35da19972d8705","name":"Thư viện thái tử","origin_name":"Let&#x27;&#x27;s be Bad","thumb_url":"thu-vien-thai-tu-thumb.jpg","slug":"thu-vien-thai-tu","year":2018,"poster_url":"thu-vien-thai-tu-poster.jpg"},{"modified":{"time":"2024-02-10T14:52:34.000Z"},"_id":"6224e685eb35da19972d86da","name":"Môn đồ của quỷ","origin_name":"Devil&#x27;&#x27;s Disciple","thumb_url":"mon-do-cua-quy-thumb.jpg","slug":"mon-do-cua-quy","year":2018,"poster_url":"mon-do-cua-quy-poster.jpg"},{"modified":{"time":"2024-02-10T14:51:07.000Z"},"_id":"6224e677eb35da19972d86c9","name":"Mộng tiên kỳ duyên","origin_name":"A Dream of the Fairy World","thumb_url":"mong-tien-ky-duyen-thumb.jpg","slug":"mong-tien-ky-duyen","year":2018,"poster_url":"mong-tien-ky-duyen-poster.jpg"},{"modified":{"time":"2024-02-10T14:50:53.000Z"},"_id":"6224e675eb35da19972d86bd","name":"Tiền và tình yêu","origin_name":"Money and Love","thumb_url":"tien-va-tinh-yeu-thumb.jpg","slug":"tien-va-tinh-yeu","year":2018,"poster_url":"tien-va-tinh-yeu-poster.jpg"},{"modified":{"time":"2024-02-10T14:50:32.000Z"},"_id":"6224e669eb35da19972d86ac","name":"Một trái tim nhân hậu 2","origin_name":"A Kind Heart 2","thumb_url":"mot-trai-tim-nhan-hau-2-thumb.jpg","slug":"mot-trai-tim-nhan-hau-2","year":2018,"poster_url":"mot-trai-tim-nhan-hau-2-poster.jpg"},{"modified":{"time":"2024-02-10T14:50:19.000Z"},"_id":"6224e65aeb35da19972d869a","name":"Một triệu trên giường","origin_name":"One Million in the Bed","thumb_url":"mot-trieu-tren-giuong-thumb.jpg","slug":"mot-trieu-tren-giuong","year":2018,"poster_url":"mot-trieu-tren-giuong-poster.jpg"},{"modified":{"time":"2024-02-10T14:49:19.000Z"},"_id":"6224e650eb35da19972d8685","name":"Tiểu oan gia thiếu gia thâm lòng","origin_name":"Unbearable Lover","thumb_url":"tieu-oan-gia-thieu-gia-tham-long-thumb.jpg","slug":"tieu-oan-gia-thieu-gia-tham-long","year":2017,"poster_url":"tieu-oan-gia-thieu-gia-tham-long-poster.jpg"},{"modified":{"time":"2024-02-10T14:49:08.000Z"},"_id":"6224e64aeb35da19972d8670","name":"Mùa đông một mình","origin_name":"One Man&#x27;&#x27;s Winter","thumb_url":"mua-dong-mot-minh-thumb.jpg","slug":"mua-dong-mot-minh","year":2018,"poster_url":"mua-dong-mot-minh-poster.jpg"},{"modified":{"time":"2024-02-10T14:48:35.000Z"},"_id":"6224e63ceb35da19972d865e","name":"Mùa hè ẩn","origin_name":"Hidden Summer","thumb_url":"mua-he-an-thumb.jpg","slug":"mua-he-an","year":2018,"poster_url":"mua-he-an-poster.jpg"}],"pathImage":"https://img.ophim12.cc/uploads/movies/","pagination":{"totalItems":25407,"totalItemsPerPage":24,"currentPage":8,"totalPages":1059}}