{"status":true,"items":[{"modified":{"time":"2024-02-18T21:35:33.000Z"},"_id":"65d1fdd85540d59e3ff71ab9","name":"Người hùng tia chớp (Phần 9)","slug":"nguoi-hung-tia-chop-phan-9","origin_name":"The Flash (Season 9)","thumb_url":"nguoi-hung-tia-chop-phan-9-thumb.jpg","poster_url":"nguoi-hung-tia-chop-phan-9-poster.jpg","year":2023},{"modified":{"time":"2024-02-18T20:37:24.000Z"},"_id":"62b86d423e39f9843cb16443","name":"Trần Thiên Thiên Trong Lời Đồn","origin_name":"The Romance of Tiger and Rose","thumb_url":"tran-thien-thien-trong-loi-don-thumb.jpg","poster_url":"tran-thien-thien-trong-loi-don-poster.jpg","slug":"tran-thien-thien-trong-loi-don","year":2020},{"modified":{"time":"2024-02-18T19:12:59.000Z"},"_id":"65d1c2495540d59e3ff6ab1d","name":"Bác Sĩ House (Phần 8)","slug":"bac-si-house-phan-8","origin_name":"House (Season 8)","thumb_url":"bac-si-house-phan-8-thumb.jpg","poster_url":"bac-si-house-phan-8-poster.jpg","year":2011},{"modified":{"time":"2024-02-18T19:12:49.000Z"},"_id":"65d1c22f5540d59e3ff6a9c6","name":"Bác Sĩ House (Phần 7)","slug":"bac-si-house-phan-7","origin_name":"House (Season 7)","thumb_url":"bac-si-house-phan-7-thumb.jpg","poster_url":"bac-si-house-phan-7-poster.jpg","year":2010},{"modified":{"time":"2024-02-18T19:12:37.000Z"},"_id":"65d1c2065540d59e3ff6a84c","name":"Bác Sĩ House (Phần 6)","slug":"bac-si-house-phan-6","origin_name":"House (Season 6)","thumb_url":"bac-si-house-phan-6-thumb.jpg","poster_url":"bac-si-house-phan-6-poster.jpg","year":2009},{"modified":{"time":"2024-02-18T19:12:25.000Z"},"_id":"65d1c1e95540d59e3ff6a6c6","name":"Bác Sĩ House (Phần 5)","slug":"bac-si-house-phan-5","origin_name":"House (Season 5)","thumb_url":"bac-si-house-phan-5-thumb.jpg","poster_url":"bac-si-house-phan-5-poster.jpg","year":2008},{"modified":{"time":"2024-02-18T19:12:10.000Z"},"_id":"65d1c1c45540d59e3ff6a50a","name":"Bác Sĩ House (Phần 4)","slug":"bac-si-house-phan-4","origin_name":"House (Season 4)","thumb_url":"bac-si-house-phan-4-thumb.jpg","poster_url":"bac-si-house-phan-4-poster.jpg","year":2007},{"modified":{"time":"2024-02-18T19:11:57.000Z"},"_id":"65d1c1a8ff05f1a47d1ba8f0","name":"Bác Sĩ House (Phần 3)","slug":"bac-si-house-phan-3","origin_name":"House (Season 3)","thumb_url":"bac-si-house-phan-3-thumb.jpg","poster_url":"bac-si-house-phan-3-poster.jpg","year":2006},{"modified":{"time":"2024-02-18T16:47:13.000Z"},"_id":"65d0c6e15540d59e3ff5aae0","name":"Vòng Vây Cá Mập","slug":"vong-vay-ca-map","origin_name":"No Way Up","thumb_url":"vong-vay-ca-map-thumb.jpg","poster_url":"vong-vay-ca-map-poster.jpg","year":2024},{"modified":{"time":"2024-02-18T16:13:02.000Z"},"_id":"65cf1af1ff05f1a47d1854b1","name":"Dĩ Ái Vi Khế (Khế Ước Tình Yêu)","slug":"di-ai-vi-khe-khe-uoc-tinh-yeu","origin_name":"Taking Love as a Contract","thumb_url":"di-ai-vi-khe-khe-uoc-tinh-yeu-thumb.jpg","poster_url":"di-ai-vi-khe-khe-uoc-tinh-yeu-poster.jpg","year":2023},{"modified":{"time":"2024-02-18T15:36:13.000Z"},"_id":"65d172b25540d59e3ff642bc","name":"Bác Sĩ House (Phần 2)","slug":"bac-si-house-s2","origin_name":"House (Season 2)","thumb_url":"bac-si-house-s2-thumb.jpg","poster_url":"bac-si-house-s2-poster.jpg","year":2004},{"modified":{"time":"2024-02-18T15:35:51.000Z"},"_id":"65d1703cff05f1a47d1b40bc","name":"Bác Sĩ House (Phần 1)","slug":"bac-si-house-s1","origin_name":"House (Season 1)","thumb_url":"bac-si-house-s1-thumb.jpg","poster_url":"bac-si-house-s1-poster.jpg","year":2004},{"modified":{"time":"2024-02-17T23:48:20.000Z"},"_id":"6555cae7aa7d07ce5c89eb57","name":"Quý Cô Mạng Nhện","slug":"quy-co-mang-nhen","origin_name":"Madame Web","thumb_url":"quy-co-mang-nhen-thumb.jpg","poster_url":"quy-co-mang-nhen-poster.jpg","year":2024},{"modified":{"time":"2024-02-17T21:28:40.000Z"},"_id":"65d0c2965540d59e3ff59db4","name":"Xích Lại Gần Nhau","slug":"xich-lai-gan-nhau","origin_name":"Closer","thumb_url":"xich-lai-gan-nhau-thumb.jpg","poster_url":"xich-lai-gan-nhau-poster.jpg","year":2004},{"modified":{"time":"2024-02-17T21:26:50.000Z"},"_id":"65d0bbc15540d59e3ff589ee","name":"Ở Vùng Đất Của Các Vị Thần và Tội Nhân","slug":"o-vung-dat-cua-cac-vi-than-va-toi-nhan","origin_name":"In the Land of Saints and Sinners","thumb_url":"o-vung-dat-cua-cac-vi-than-va-toi-nhan-thumb.jpg","poster_url":"o-vung-dat-cua-cac-vi-than-va-toi-nhan-poster.jpg","year":2023},{"modified":{"time":"2024-02-17T21:26:20.000Z"},"_id":"65d0c20aff05f1a47d1a9e13","name":"Hell in the Pacific","slug":"hell-in-the-pacific","origin_name":"Hell in the Pacific","thumb_url":"hell-in-the-pacific-thumb.jpg","poster_url":"hell-in-the-pacific-poster.jpg","year":1968},{"modified":{"time":"2024-02-17T21:25:14.000Z"},"_id":"65d0c1c8ff05f1a47d1a9bfa","name":"Cảnh Sát Giữ Trẻ","slug":"canh-sat-giu-tre","origin_name":"Kindergarten Cop","thumb_url":"canh-sat-giu-tre-thumb.jpg","poster_url":"canh-sat-giu-tre-poster.jpg","year":1990},{"modified":{"time":"2024-02-16T23:13:59.000Z"},"_id":"65cf6e2b5540d59e3ff413ac","name":"Nhà của ninja","slug":"nha-cua-ninja","origin_name":"House of Ninjas","thumb_url":"nha-cua-ninja-thumb.jpg","poster_url":"nha-cua-ninja-poster.jpg","year":2024},{"modified":{"time":"2024-02-16T23:12:25.000Z"},"_id":"65b0e5487074f826ccedfa33","name":"Người hành pháp: Bass Reeve","slug":"nguoi-hanh-phap-bass-reeve","origin_name":"Lawmen: Bass Reeves","thumb_url":"nguoi-hanh-phap-bass-reeve-thumb.jpg","poster_url":"nguoi-hanh-phap-bass-reeve-poster.jpg","year":2023},{"modified":{"time":"2024-02-16T21:26:32.000Z"},"_id":"65cf6dae5540d59e3ff410e7","name":"Năm Cuộc Hẹn Hò","slug":"nam-cuoc-hen-ho","origin_name":"Five Blind Dates","thumb_url":"nam-cuoc-hen-ho-thumb.jpg","poster_url":"nam-cuoc-hen-ho-poster.jpg","year":2024},{"modified":{"time":"2024-02-16T20:06:29.000Z"},"_id":"65bd4d865540d59e3fde1274","name":"Trò Chơi Trí Mệnh","slug":"tro-choi-tri-menh","origin_name":"The Spirealm","thumb_url":"tro-choi-tri-menh-thumb.jpg","poster_url":"tro-choi-tri-menh-poster.jpg","year":2024},{"modified":{"time":"2024-02-16T18:16:16.000Z"},"_id":"64a6e8ad621029c05fe8271e","name":"Chú Thuật Hồi Chiến 2","slug":"chu-thuat-hoi-chien-2","origin_name":"Jujutsu Kaisen 2 || Sorcery Fight 2","thumb_url":"chu-thuat-hoi-chien-2-thumb.jpg","poster_url":"chu-thuat-hoi-chien-2-poster.jpg","year":2023},{"modified":{"time":"2024-02-16T15:34:45.000Z"},"_id":"65bb377dff05f1a47dffd50b","name":"Phệ Tâm","slug":"phe-tam","origin_name":"Broken the Heart","thumb_url":"phe-tam-thumb.jpg","poster_url":"phe-tam-poster.jpg","year":2024},{"modified":{"time":"2024-02-16T10:57:46.000Z"},"_id":"65cedd3a5540d59e3ff2bdc2","name":"Players","slug":"players","origin_name":"Players","thumb_url":"players-thumb.jpg","poster_url":"players-poster.jpg","year":2024}],"pathImage":"https://img.ophim12.cc/uploads/movies/","pagination":{"totalItems":25407,"totalItemsPerPage":24,"currentPage":7,"totalPages":1059}}