{"status":true,"items":[{"modified":{"time":"2024-02-21T14:44:57.000Z"},"_id":"65d5a9745540d59e3ffc6c97","name":"Cầu Hồn","slug":"cau-hon","origin_name":"The Bridge Curse: Ritual","thumb_url":"cau-hon-thumb.jpg","poster_url":"cau-hon-poster.jpg","year":2023},{"modified":{"time":"2024-02-21T14:44:44.000Z"},"_id":"65d5a9e95540d59e3ffc6f9b","name":"The Dirty South","slug":"the-dirty-south","origin_name":"The Dirty South","thumb_url":"the-dirty-south-thumb.jpg","poster_url":"the-dirty-south-poster.jpg","year":2023},{"modified":{"time":"2024-02-20T22:50:55.000Z"},"_id":"65d4ca5eff05f1a47d209538","name":"End of Days","slug":"end-of-days","origin_name":"End of Days","thumb_url":"end-of-days-thumb.jpg","poster_url":"end-of-days-poster.jpg","year":1999},{"modified":{"time":"2024-02-20T22:48:53.000Z"},"_id":"65d4c9e25540d59e3ffb7d8f","name":"Enemy 2013","slug":"enemy-2013","origin_name":"Enemy","thumb_url":"enemy-2013-thumb.jpg","poster_url":"enemy-2013-poster.jpg","year":2013},{"modified":{"time":"2024-02-20T22:46:42.000Z"},"_id":"65d4c960ff05f1a47d208e76","name":"Friday","slug":"friday","origin_name":"Friday","thumb_url":"friday-thumb.jpg","poster_url":"friday-poster.jpg","year":1995},{"modified":{"time":"2024-02-20T22:39:38.000Z"},"_id":"65d4c7b85540d59e3ffb7073","name":"Giữa Muôn Trùng Tội Ác","slug":"giua-muon-trung-toi-ac","origin_name":"Gomorrah","thumb_url":"giua-muon-trung-toi-ac-thumb.jpg","poster_url":"giua-muon-trung-toi-ac-poster.jpg","year":2008},{"modified":{"time":"2024-02-20T22:22:53.000Z"},"_id":"65d4c3ca5540d59e3ffb6423","name":"Nhục Cảm","slug":"nhuc-cam","origin_name":"Live Flesh ","thumb_url":"nhuc-cam-thumb.jpg","poster_url":"nhuc-cam-poster.jpg","year":1997},{"modified":{"time":"2024-02-20T22:15:57.000Z"},"_id":"65d4c1b75540d59e3ffb5d5b","name":"Private Lessons","slug":"private-lessons","origin_name":"Private Lessons","thumb_url":"private-lessons-thumb.jpg","poster_url":"private-lessons-poster.jpg","year":1981},{"modified":{"time":"2024-02-20T15:29:20.000Z"},"_id":"65b9eaf25540d59e3fd9bb6d","name":"Hỉ Quyển Thường Lạc Thành","slug":"hi-quyen-thuong-lac-thanh","origin_name":"The Happy Seven in Changan","thumb_url":"hi-quyen-thuong-lac-thanh-thumb.jpg","poster_url":"hi-quyen-thuong-lac-thanh-poster.jpg","year":2024},{"modified":{"time":"2024-02-20T15:21:30.000Z"},"_id":"65bdefe95540d59e3fdeda07","name":"1st Kiss ","slug":"1st-kiss","origin_name":"你的人生是我来迟了","thumb_url":"1st-kiss-thumb.jpg","poster_url":"1st-kiss-poster.jpg","year":2023},{"modified":{"time":"2024-02-20T15:14:00.000Z"},"_id":"65d45d725540d59e3ffa9480","name":"Ghét Mà Vẫn Yêu","slug":"ghet-ma-van-yeu-2023","origin_name":"Anyone But You","thumb_url":"ghet-ma-van-yeu-2023-thumb.jpg","poster_url":"ghet-ma-van-yeu-2023-poster.jpg","year":2023},{"modified":{"time":"2024-02-19T23:53:59.000Z"},"_id":"659c0e017074f826ccc1c0f7","name":"Nguyệt Đao Dị Giới (Phần 2)","slug":"nguyet-dao-di-gioi-phan-2","origin_name":"Tsukimichi -Moonlit Fantasy- Season 2 / Tsuki ga Michibiku 2","thumb_url":"nguyet-dao-di-gioi-phan-2-thumb.jpg","poster_url":"nguyet-dao-di-gioi-phan-2-poster.jpg","year":2024},{"modified":{"time":"2024-02-19T21:15:09.000Z"},"_id":"65d361d7ff05f1a47d1e85e5","name":"Tuổi Thơ Bá Đạo của Sheldon (Phần 7)","slug":"tuoi-tho-ba-dao-cua-sheldon-phan-7","origin_name":"Young Sheldon Season 7","thumb_url":"tuoi-tho-ba-dao-cua-sheldon-phan-7-thumb.jpg","poster_url":"tuoi-tho-ba-dao-cua-sheldon-phan-7-poster.jpg","year":2024},{"modified":{"time":"2024-02-19T20:58:38.000Z"},"_id":"658950652f36c295ed5ec0f4","name":"For Him","slug":"for-him","origin_name":"For Him","thumb_url":"for-him-thumb.jpg","poster_url":"for-him-poster.jpg","year":2023},{"modified":{"time":"2024-02-19T19:57:34.000Z"},"_id":"65d3503c5540d59e3ff92f88","name":"Anh Hùng Cái Thế Tào Tháo ","slug":"anh-hung-cai-the-tao-thao","origin_name":"Anh Hùng Cái Thế Tào Tháo","thumb_url":"anh-hung-cai-the-tao-thao-thumb.jpg","poster_url":"anh-hung-cai-the-tao-thao-poster.jpg","year":2013},{"modified":{"time":"2024-02-19T19:32:07.000Z"},"_id":"65d2d69eff05f1a47d1d1a3e","name":"Tùy Đường Diễn Nghĩa","slug":"tuy-duong-dien-nghia","origin_name":"Tùy Đường Diễn Nghĩa","thumb_url":"tuy-duong-dien-nghia-thumb.jpg","poster_url":"tuy-duong-dien-nghia-poster.jpg","year":2013},{"modified":{"time":"2024-02-19T14:57:53.000Z"},"_id":"65b0fb8131d8a2b99ec22a7e","name":"Máu Lạnh","slug":"mau-lanh","origin_name":"The Two Sisters | In Cold Blood","thumb_url":"mau-lanh-thumb.jpg","poster_url":"mau-lanh-poster.jpg","year":2024},{"modified":{"time":"2024-02-19T14:57:32.000Z"},"_id":"658c18efefed8b7739e3cc58","name":"Anh Và Cô Ấy","slug":"anh-va-co-ay","origin_name":"Between Him and Her","thumb_url":"anh-va-co-ay-thumb.jpg","poster_url":"anh-va-co-ay-poster.jpg","year":2023},{"modified":{"time":"2024-02-19T14:57:09.000Z"},"_id":"65d309d2ff05f1a47d1dc245","name":"Cửa Hàng Ánh Sáng","slug":"cua-hang-anh-sang","origin_name":"The Shop of the Lamp","thumb_url":"cua-hang-anh-sang-thumb.jpg","poster_url":"cua-hang-anh-sang-poster.jpg","year":2023},{"modified":{"time":"2024-02-19T14:45:02.000Z"},"_id":"657211192f36c295ed0a26c8","name":"Giữa Cơn Bão Tuyết","slug":"giua-con-bao-tuyet","origin_name":"Amidst a Snowstorm of Love","thumb_url":"giua-con-bao-tuyet-thumb.jpg","poster_url":"giua-con-bao-tuyet-poster.jpg","year":2024},{"modified":{"time":"2024-02-19T14:43:23.000Z"},"_id":"6589510fefed8b7739df1bc0","name":"Pit Babe The Series","slug":"pit-babe-the-series","origin_name":"Pit Babe The Series","thumb_url":"pit-babe-the-series-thumb.jpg","poster_url":"pit-babe-the-series-poster.jpg","year":2023},{"modified":{"time":"2024-02-19T12:58:30.000Z"},"_id":"649e8f4a9f4442ce4d2adaf3","name":"Chiến Binh (Phần 2)","slug":"chien-binh-phan-2","origin_name":"Warrior (Season 2)","thumb_url":"chien-binh-phan-2-thumb.jpg","poster_url":"chien-binh-phan-2-poster.jpg","year":2020},{"modified":{"time":"2024-02-19T11:23:49.000Z"},"_id":"65cf68795540d59e3ff40099","name":"Ninja Kamui","slug":"ninja-kamui","origin_name":"Ninja Kamui","thumb_url":"ninja-kamui-thumb.jpg","poster_url":"ninja-kamui-poster.jpg","year":2024},{"modified":{"time":"2024-02-18T21:54:37.000Z"},"_id":"65a1023531d8a2b99ea1825a","name":"Hoa Nở Về Đêm","slug":"hoa-no-ve-dem","origin_name":"Knight Flower","thumb_url":"hoa-no-ve-dem-thumb.jpg","poster_url":"hoa-no-ve-dem-poster.jpg","year":2024}],"pathImage":"https://img.ophim12.cc/uploads/movies/","pagination":{"totalItems":25407,"totalItemsPerPage":24,"currentPage":6,"totalPages":1059}}