{"status":true,"items":[{"modified":{"time":"2023-03-27T19:31:12.000Z"},"_id":"64218c8c83982600241ec027","name":"Hòn Đảo Chết","slug":"hon-dao-chet","origin_name":"Black Rock","thumb_url":"hon-dao-chet-thumb.jpg","poster_url":"hon-dao-chet-poster.jpg","year":2012},{"modified":{"time":"2023-03-27T19:29:22.000Z"},"_id":"64218c20162420646b022067","name":"Dead Mine","slug":"dead-mine","origin_name":"Dead Mine","thumb_url":"dead-mine-thumb.jpg","poster_url":"dead-mine-poster.jpg","year":2012},{"modified":{"time":"2023-03-27T19:27:55.000Z"},"_id":"64218bc9c6a3dc1b3d17e87b","name":"Những Kỳ Vọng Lớn Lao","slug":"nhung-ky-vong-lon-lao","origin_name":"Great Expectations","thumb_url":"nhung-ky-vong-lon-lao-thumb.jpg","poster_url":"nhung-ky-vong-lon-lao-poster.jpg","year":2012},{"modified":{"time":"2023-03-27T19:25:55.000Z"},"_id":"64218b52c6a3dc1b3d17e80f","name":"Văn Hào Trên Chiến Trận","slug":"van-hao-tren-chien-tran","origin_name":"Hemingway & Gellhorn","thumb_url":"van-hao-tren-chien-tran-thumb.jpg","poster_url":"van-hao-tren-chien-tran-poster.jpg","year":2012},{"modified":{"time":"2023-03-27T19:24:22.000Z"},"_id":"64218af3be1ee82036a2dc74","name":"Huyền Mộng","slug":"huyen-mong","origin_name":"Imaginaerum","thumb_url":"huyen-mong-thumb.jpg","poster_url":"huyen-mong-poster.jpg","year":2012},{"modified":{"time":"2023-03-27T18:31:08.000Z"},"_id":"64217e7854695c9785d38c23","name":"Kẻ Điên","slug":"ke-dien","origin_name":"Maniac","thumb_url":"ke-dien-thumb.jpg","poster_url":"ke-dien-poster.jpg","year":2012},{"modified":{"time":"2023-03-27T18:23:49.000Z"},"_id":"64217cc4be1ee82036a2d9d3","name":"Noobz","slug":"noobz","origin_name":"Noobz","thumb_url":"noobz-thumb.jpg","poster_url":"noobz-poster.jpg","year":2013},{"modified":{"time":"2023-03-27T18:20:42.000Z"},"_id":"64217bff54695c9785d38b1b","name":"Nguyện Ước","slug":"nguyen-uoc","origin_name":"Now Is Good","thumb_url":"nguyen-uoc-thumb.jpg","poster_url":"nguyen-uoc-poster.jpg","year":2012},{"modified":{"time":"2023-03-27T18:18:43.000Z"},"_id":"64217b91162420646b021bab","name":"Khi Cháu Là Siêu Quậy","slug":"khi-chau-la-sieu-quay","origin_name":"Parental Guidance","thumb_url":"khi-chau-la-sieu-quay-thumb.jpg","poster_url":"khi-chau-la-sieu-quay-poster.jpg","year":2012},{"modified":{"time":"2023-03-27T18:14:44.000Z"},"_id":"63d1f10c9e1191b122574302","name":"Khi Mẹ Gặp Bố (Phần 2)","origin_name":"How I Met Your Father (Season 2)","thumb_url":"khi-me-gap-bo-phan-2-thumb.jpg","poster_url":"khi-me-gap-bo-phan-2-poster.jpg","slug":"khi-me-gap-bo-phan-2","year":2023},{"modified":{"time":"2023-03-27T18:14:21.000Z"},"_id":"64213e0c83982600241eac8e","name":"Adele: Đêm Duy Nhất","slug":"adele-dem-duy-nhat","origin_name":"Adele One Night Only","thumb_url":"adele-dem-duy-nhat-thumb.jpg","poster_url":"adele-dem-duy-nhat-poster.jpg","year":2021},{"modified":{"time":"2023-03-27T18:10:28.000Z"},"_id":"6421799dc6a3dc1b3d17e24e","name":"Anh Chàng Sét Đánh","slug":"anh-chang-set-danh","origin_name":"Struck by Lightning","thumb_url":"anh-chang-set-danh-thumb.jpg","poster_url":"anh-chang-set-danh-poster.jpg","year":2012},{"modified":{"time":"2023-03-27T18:08:13.000Z"},"_id":"6421791b162420646b02190c","name":"Phản Đối Chiến Tranh","slug":"phan-doi-chien-tranh","origin_name":"The Company You Keep","thumb_url":"phan-doi-chien-tranh-thumb.jpg","poster_url":"phan-doi-chien-tranh-poster.jpg","year":2012},{"modified":{"time":"2023-03-27T18:05:49.000Z"},"_id":"6421788bc6a3dc1b3d17e0ec","name":"Chuyến Đi Sai Lầm","slug":"chuyen-di-sai-lam","origin_name":"The Guilt Trip","thumb_url":"chuyen-di-sai-lam-thumb.jpg","poster_url":"chuyen-di-sai-lam-poster.jpg","year":2012},{"modified":{"time":"2023-03-27T18:03:16.000Z"},"_id":"642177ed54695c9785d38683","name":"To the Wonder","slug":"to-the-wonder","origin_name":"To the Wonder","thumb_url":"to-the-wonder-thumb.jpg","poster_url":"to-the-wonder-poster.jpg","year":2012},{"modified":{"time":"2023-03-27T15:56:49.000Z"},"_id":"6261082adb43524328affef4","name":"Bị bắt cóc bởi một trường nữ sinh ưu tú với tư cách là một mẫu vật thường dân","origin_name":"Ore ga Ojousama Gakkou ni","thumb_url":"bi-bat-coc-boi-mot-truong-nu-sinh-uu-tu-voi-tu-cach-la-mot-mau-vat-thuong-dan-thumb.jpg","slug":"bi-bat-coc-boi-mot-truong-nu-sinh-uu-tu-voi-tu-cach-la-mot-mau-vat-thuong-dan","year":2015,"poster_url":"bi-bat-coc-boi-mot-truong-nu-sinh-uu-tu-voi-tu-cach-la-mot-mau-vat-thuong-dan-poster.jpg"},{"modified":{"time":"2023-03-27T15:55:08.000Z"},"_id":"640c46280fc1635bd468981e","name":"Người Dơi: Ngày Tàn Của Gotham","slug":"nguoi-doi-ngay-tan-cua-gotham","origin_name":"Batman: The Doom That Came to Gotham","thumb_url":"nguoi-doi-ngay-tan-cua-gotham-thumb.jpg","poster_url":"nguoi-doi-ngay-tan-cua-gotham-poster.jpg","year":2023},{"modified":{"time":"2023-03-27T15:19:57.000Z"},"_id":"63dbf798b0a3358efee7b1ff","name":"Chiếc Cốc Máu","origin_name":"The Chalice of Blood","thumb_url":"chiec-coc-mau-thumb.jpg","poster_url":"chiec-coc-mau-poster.jpg","slug":"chiec-coc-mau","year":2022},{"modified":{"time":"2023-03-27T14:51:43.000Z"},"_id":"64213ce5162420646b020a2f","name":"Trận Chiến Thế Giới Ngầm","slug":"tran-chien-the-gioi-ngam","origin_name":"Kill the Drug Lords","thumb_url":"tran-chien-the-gioi-ngam-thumb.jpg","poster_url":"tran-chien-the-gioi-ngam-poster.jpg","year":2023},{"modified":{"time":"2023-03-27T13:43:56.000Z"},"_id":"62cf26f2a862e5da383c0031","name":"Tình Nồng Nơi Công Sở","origin_name":"Buff In Love","thumb_url":"tinh-nong-noi-cong-so-thumb.jpg","poster_url":"tinh-nong-noi-cong-so-poster.jpg","slug":"tinh-nong-noi-cong-so","year":2022},{"modified":{"time":"2023-03-27T13:41:17.000Z"},"_id":"64213a8dc6a3dc1b3d17d1ba","name":"Ở Bên Nhau Như Trước Đây","slug":"o-ben-nhau-nhu-truoc-day","origin_name":"Stay With Me As Before","thumb_url":"o-ben-nhau-nhu-truoc-day-thumb.jpg","poster_url":"o-ben-nhau-nhu-truoc-day-poster.jpg","year":2022},{"modified":{"time":"2023-03-27T13:39:47.000Z"},"_id":"64213a3383982600241ea8f3","name":"Lộ Trình Nghề Nghiệp Đến Đỉnh Cao","slug":"lo-trinh-nghe-nghiep-den-dinh-cao","origin_name":"Vocational Path to the Top","thumb_url":"lo-trinh-nghe-nghiep-den-dinh-cao-thumb.jpg","poster_url":"lo-trinh-nghe-nghiep-den-dinh-cao-poster.jpg","year":2022},{"modified":{"time":"2023-03-27T12:16:09.000Z"},"_id":"64212699be1ee82036a2bc45","name":"Vũ trụ hoạt động như thế nào (Phần 7)","slug":"vu-tru-hoat-dong-nhu-the-nao-phan-7","origin_name":"How the Universe Works (Season 7)","thumb_url":"vu-tru-hoat-dong-nhu-the-nao-phan-7-thumb.jpg","poster_url":"vu-tru-hoat-dong-nhu-the-nao-phan-7-poster.jpg","year":2019},{"modified":{"time":"2023-03-27T12:15:44.000Z"},"_id":"64212635be1ee82036a2bba2","name":"Vũ trụ hoạt động như thế nào (Phần 6)","slug":"how-the-universe-works-phan-6","origin_name":"How the Universe Works (Season 6)","thumb_url":"how-the-universe-works-phan-6-thumb.jpg","poster_url":"how-the-universe-works-phan-6-poster.jpg","year":2018}],"pathImage":"https://img.ophim12.cc/uploads/movies/","pagination":{"totalItems":25554,"totalItemsPerPage":24,"currentPage":526,"totalPages":1065}}