{"status":true,"items":[{"modified":{"time":"2024-02-29T09:16:01.000Z"},"_id":"65dfe8c0f5295c8cd10b425f","name":"Cuồng Dã Anh Hùng","slug":"cuong-da-anh-hung","origin_name":"Wild Heroes","thumb_url":"cuong-da-anh-hung-thumb.jpg","poster_url":"cuong-da-anh-hung-poster.jpg","year":2015},{"modified":{"time":"2024-02-29T09:12:45.000Z"},"_id":"65dfe806f5295c8cd10b3995","name":"Cuộc Sống Màu Đỏ","slug":"cuoc-song-mau-do","origin_name":"RedLife","thumb_url":"cuoc-song-mau-do-thumb.jpg","poster_url":"cuoc-song-mau-do-poster.jpg","year":2023},{"modified":{"time":"2024-02-29T09:11:25.000Z"},"_id":"65dfe7cae5f40e2ffe783855","name":"Cùng nói về CHU","slug":"cung-noi-ve-chu","origin_name":"Let's Talk About CHU","thumb_url":"cung-noi-ve-chu-thumb.jpg","poster_url":"cung-noi-ve-chu-poster.jpg","year":2024},{"modified":{"time":"2024-02-29T09:08:57.000Z"},"_id":"65dfe72ef5295c8cd10b2e65","name":"Như Thể Là Thật ","slug":"nhu-the-la-that","origin_name":"As If It's True","thumb_url":"nhu-the-la-that-thumb.jpg","poster_url":"nhu-the-la-that-poster.jpg","year":2023},{"modified":{"time":"2024-02-29T09:06:34.000Z"},"_id":"65dfe6a2e5f40e2ffe78286b","name":"Người yêu, kẻ rình mò, sát nhân","slug":"nguoi-yeu-ke-rinh-mo-sat-nhan","origin_name":"Lover, Stalker, Killer","thumb_url":"nguoi-yeu-ke-rinh-mo-sat-nhan-thumb.jpg","poster_url":"nguoi-yeu-ke-rinh-mo-sat-nhan-poster.jpg","year":2024},{"modified":{"time":"2024-02-29T09:05:41.000Z"},"_id":"65dfe659e5f40e2ffe782361","name":"Hỗn loạn sân khấu hài","slug":"hon-loan-san-khau-hai","origin_name":"Comedy Chaos","thumb_url":"hon-loan-san-khau-hai-thumb.jpg","poster_url":"hon-loan-san-khau-hai-poster.jpg","year":2024},{"modified":{"time":"2024-02-29T09:03:56.000Z"},"_id":"65dfe606f5295c8cd10b1b80","name":"Indigo","slug":"indigo","origin_name":"Indigo","thumb_url":"indigo-thumb.jpg","poster_url":"indigo-poster.jpg","year":2023},{"modified":{"time":"2024-02-29T09:02:59.000Z"},"_id":"65dfe5b7f5295c8cd10b15b6","name":"Luz","slug":"luz","origin_name":"Luz: The Light of the Heart","thumb_url":"luz-thumb.jpg","poster_url":"luz-poster.jpg","year":2024},{"modified":{"time":"2024-02-29T09:01:14.000Z"},"_id":"65dfe55ef5295c8cd10b0f45","name":"Mea Culpa","slug":"mea-culpa","origin_name":"Mea Culpa","thumb_url":"mea-culpa-thumb.jpg","poster_url":"mea-culpa-poster.jpg","year":2024},{"modified":{"time":"2024-02-29T09:00:31.000Z"},"_id":"65dfe52fe5f40e2ffe780da8","name":"Mãi Mãi Đội Sunderland (Phần 3)","slug":"mai-mai-doi-sunderland-phan-3","origin_name":"Sunderland 'Til I Die","thumb_url":"mai-mai-doi-sunderland-phan-3-thumb.jpg","poster_url":"mai-mai-doi-sunderland-phan-3-poster.jpg","year":2018},{"modified":{"time":"2024-02-29T08:56:36.000Z"},"_id":"65dfe451e5f40e2ffe7801bd","name":"Một ngày","slug":"mot-ngay-2024","origin_name":"One Day","thumb_url":"mot-ngay-2024-thumb.jpg","poster_url":"mot-ngay-2024-poster.jpg","year":2024},{"modified":{"time":"2024-02-29T08:55:03.000Z"},"_id":"65dfe3eae5f40e2ffe77fab7","name":"Raël: Nhà tiên tri ngoài hành tinh","slug":"rael-nha-tien-tri-ngoai-hanh-tinh","origin_name":"Raël: The Alien Prophet","thumb_url":"rael-nha-tien-tri-ngoai-hanh-tinh-thumb.jpg","poster_url":"rael-nha-tien-tri-ngoai-hanh-tinh-poster.jpg","year":2024},{"modified":{"time":"2024-02-29T08:54:18.000Z"},"_id":"65dfe3a2f5295c8cd10af2ff","name":"Rhapsody Mì Tương Đen Hàn Quốc","slug":"rhapsody-mi-tuong-den-han-quoc","origin_name":"Jjajangmyeon Rhapsody","thumb_url":"rhapsody-mi-tuong-den-han-quoc-thumb.jpg","poster_url":"rhapsody-mi-tuong-den-han-quoc-poster.jpg","year":2024},{"modified":{"time":"2024-02-29T08:51:27.000Z"},"_id":"65dfe31de5f40e2ffe77ed3d","name":"Tình Yêu Sâu Đậm","slug":"tinh-yeu-sau-dam-2021","origin_name":"Love Deeply!","thumb_url":"tinh-yeu-sau-dam-2021-thumb.jpg","poster_url":"tinh-yeu-sau-dam-2021-poster.jpg","year":2021},{"modified":{"time":"2024-02-29T08:34:30.000Z"},"_id":"65dfdee6f5295c8cd10ac11f","name":"Trường nữ sinh AlRawabi (Phần 2)","slug":"truong-nu-sinh-alrawabi-phan-2","origin_name":"AlRawabi School for Girls Season 2","thumb_url":"truong-nu-sinh-alrawabi-phan-2-thumb.jpg","poster_url":"truong-nu-sinh-alrawabi-phan-2-poster.jpg","year":2024},{"modified":{"time":"2024-02-29T08:31:33.000Z"},"_id":"65dfde49f5295c8cd10ab933","name":"Vợ Chồng Ngụy Trang","slug":"vo-chong-nguy-trang","origin_name":"Fake Marriage","thumb_url":"vo-chong-nguy-trang-thumb.jpg","poster_url":"vo-chong-nguy-trang-poster.jpg","year":2015},{"modified":{"time":"2024-02-28T19:42:31.000Z"},"_id":"65df2a2ff5295c8cd105deaa","name":"Woman","slug":"woman","origin_name":"Woman","thumb_url":"woman-thumb.jpg","poster_url":"woman-poster.jpg","year":2013},{"modified":{"time":"2024-02-28T16:46:08.000Z"},"_id":"6571b4bc2f36c295ed0954bf","name":"Cô Đi Mà Lấy Chồng Tôi","slug":"co-di-ma-lay-chong-toi","origin_name":"Marry My Husband","thumb_url":"co-di-ma-lay-chong-toi-thumb.jpg","poster_url":"co-di-ma-lay-chong-toi-poster.jpg","year":2024},{"modified":{"time":"2024-02-28T14:01:25.000Z"},"_id":"65deda45f5295c8cd1038bed","name":"Exhuma: Quật mộ trùng ma","slug":"exhuma-quat-mo-trung-ma","origin_name":"Exhuma","thumb_url":"exhuma-quat-mo-trung-ma-thumb.jpg","poster_url":"exhuma-quat-mo-trung-ma-poster.jpg","year":2024},{"modified":{"time":"2024-02-28T11:33:00.000Z"},"_id":"65a4fd687074f826ccd3179d","name":"Thực Tập Sinh Trong Trái Tim Tôi","slug":"thuc-tap-sinh-trong-trai-tim-toi","origin_name":"Intern in my heart","thumb_url":"thuc-tap-sinh-trong-trai-tim-toi-thumb.jpg","poster_url":"thuc-tap-sinh-trong-trai-tim-toi-poster.jpg","year":2024},{"modified":{"time":"2024-02-28T11:10:38.000Z"},"_id":"65de926cf5295c8cd1015d4f","name":"Thế Giới Ngầm Tokyo (Phần 2)","slug":"the-gioi-ngam-tokyo-phan-2","origin_name":"Tokyo Vice Season 2","thumb_url":"the-gioi-ngam-tokyo-phan-2-thumb.jpg","poster_url":"the-gioi-ngam-tokyo-phan-2-poster.jpg","year":2024},{"modified":{"time":"2024-02-28T09:58:02.000Z"},"_id":"65dea138e5f40e2ffe6ee3dc","name":"NASCAR: Hết tốc lực","slug":"nascar-het-toc-luc","origin_name":"NASCAR: Full Speed","thumb_url":"nascar-het-toc-luc-thumb.jpg","poster_url":"nascar-het-toc-luc-poster.jpg","year":2024},{"modified":{"time":"2024-02-28T09:55:56.000Z"},"_id":"65dea0baf5295c8cd101daef","name":"The Great Rift: Africa's Wild Heart","slug":"the-great-rift-africas-wild-heart","origin_name":"The Great Rift: Africa's Wild Heart","thumb_url":"the-great-rift-africas-wild-heart-thumb.jpg","poster_url":"the-great-rift-africas-wild-heart-poster.jpg","year":2010},{"modified":{"time":"2024-02-28T09:54:13.000Z"},"_id":"65dea053f5295c8cd101d5b1","name":"Survival Of The Snow Leopard","slug":"survival-of-the-snow-leopard","origin_name":"Survival Of The Snow Leopard","thumb_url":"survival-of-the-snow-leopard-thumb.jpg","poster_url":"survival-of-the-snow-leopard-poster.jpg","year":2020}],"pathImage":"https://img.ophim12.cc/uploads/movies/","pagination":{"totalItems":25554,"totalItemsPerPage":24,"currentPage":10,"totalPages":1065}}