{"status":true,"items":[{"modified":{"time":"2023-11-30T20:21:11.000Z"},"_id":"65688c4703f63c57cbbaf120","name":"Khi Dừng Lại Ở Đây","slug":"khi-dung-lai-o-day","origin_name":"Ketika Berhenti Di Sini","thumb_url":"khi-dung-lai-o-day-thumb.jpg","poster_url":"khi-dung-lai-o-day-poster.jpg","year":2023},{"modified":{"time":"2023-11-30T20:06:38.000Z"},"_id":"6568856daa7d07ce5cace2e8","name":"Những kẻ xấu xa: Một Giáng sinh rất xấu xa","slug":"nhung-ke-xau-xa-mot-giang-sinh-rat-xau-xa","origin_name":"The Bad Guys: A Very Bad Holiday","thumb_url":"nhung-ke-xau-xa-mot-giang-sinh-rat-xau-xa-thumb.jpg","poster_url":"nhung-ke-xau-xa-mot-giang-sinh-rat-xau-xa-poster.jpg","year":2023},{"modified":{"time":"2023-11-30T20:00:22.000Z"},"_id":"64fea171fe8e2316c079f247","name":"Dòng sông Trinh Nữ (Phần 5)","slug":"dong-song-trinh-nu-phan-5","origin_name":"Virgin River (Season 5)","thumb_url":"dong-song-trinh-nu-phan-5-thumb.jpg","poster_url":"dong-song-trinh-nu-phan-5-poster.jpg","year":2023},{"modified":{"time":"2023-11-30T17:56:46.000Z"},"_id":"630d0a900048e70b82a11e11","name":"Lạc Du Nguyên","origin_name":"Wonderland of Love","thumb_url":"lac-du-nguyen-thumb.jpg","poster_url":"lac-du-nguyen-poster.jpg","slug":"lac-du-nguyen","year":2023},{"modified":{"time":"2023-11-30T16:50:55.000Z"},"_id":"656847d203f63c57cbb9f142","name":"Những Ngày Khó Khăn","slug":"nhung-ngay-kho-khan","origin_name":"Hard Days","thumb_url":"nhung-ngay-kho-khan-thumb.jpg","poster_url":"nhung-ngay-kho-khan-poster.jpg","year":2023},{"modified":{"time":"2023-11-30T15:51:21.000Z"},"_id":"656832aaaa7d07ce5cabb329","name":"Rick Và Morty (Phần 6)","slug":"rick-va-morty-phan-6","origin_name":"Rick and Morty Season 6","thumb_url":"rick-va-morty-phan-6-thumb.jpg","poster_url":"rick-va-morty-phan-6-poster.jpg","year":2022},{"modified":{"time":"2023-11-30T15:07:18.000Z"},"_id":"64b11825fc04611a05589073","name":"Thám Tử Lừng Danh Conan 26: Tàu Ngầm Sắt Màu Đen","slug":"tham-tu-lung-danh-conan-26-tau-ngam-sat-mau-den","origin_name":"Detective Conan: Black Iron Submarine","thumb_url":"tham-tu-lung-danh-conan-26-tau-ngam-sat-mau-den-thumb.jpg","poster_url":"tham-tu-lung-danh-conan-26-tau-ngam-sat-mau-den-poster.jpg","year":2023},{"modified":{"time":"2023-11-30T11:46:03.000Z"},"_id":"656765bbaa7d07ce5caa9173","name":"Cô Nàng Lợi Hại Chân Cao Quý","slug":"co-nang-loi-hai-chan-cao-quy","origin_name":"了不起的甄高贵","thumb_url":"co-nang-loi-hai-chan-cao-quy-thumb.jpg","poster_url":"co-nang-loi-hai-chan-cao-quy-poster.jpg","year":2023},{"modified":{"time":"2023-11-30T09:49:19.000Z"},"_id":"6567f82daa7d07ce5cab5194","name":" Những đam mê của cô vợ luật sư","slug":"nhung-dam-me-cua-co-vo-luat-su","origin_name":"A Good Lawyer's Wife","thumb_url":"nhung-dam-me-cua-co-vo-luat-su-thumb.jpg","poster_url":"nhung-dam-me-cua-co-vo-luat-su-poster.jpg","year":2003},{"modified":{"time":"2023-11-30T09:44:29.000Z"},"_id":"6567f6ee03f63c57cbb93030","name":"Cực Độ Thú Tính","slug":"cuc-do-thu-tinh","origin_name":"Evil Instinct ","thumb_url":"cuc-do-thu-tinh-thumb.jpg","poster_url":"cuc-do-thu-tinh-poster.jpg","year":1996},{"modified":{"time":"2023-11-30T09:39:58.000Z"},"_id":"6567f5fcaa7d07ce5cab3fda","name":"Hero 2002","slug":"hero-2002","origin_name":"Hero","thumb_url":"hero-2002-thumb.jpg","poster_url":"hero-2002-poster.jpg","year":2002},{"modified":{"time":"2023-11-30T09:34:20.000Z"},"_id":"6567f4a9aa7d07ce5cab3604","name":"Kẻ Săn Lùng","slug":"ke-san-lung","origin_name":"Mandy","thumb_url":"ke-san-lung-thumb.jpg","poster_url":"ke-san-lung-poster.jpg","year":2018},{"modified":{"time":"2023-11-30T09:33:24.000Z"},"_id":"6567f46d03f63c57cbb91b5e","name":"Truyện Về Chàng Tom Jones","slug":"truyen-ve-chang-tom-jones","origin_name":"Tom Jones","thumb_url":"truyen-ve-chang-tom-jones-thumb.jpg","poster_url":"truyen-ve-chang-tom-jones-poster.jpg","year":1963},{"modified":{"time":"2023-11-30T01:05:14.000Z"},"_id":"654bc69caa7d07ce5c787aaa","name":"Vigilante","slug":"vigilante","origin_name":"Vigilante","thumb_url":"vigilante-thumb.jpg","poster_url":"vigilante-poster.jpg","year":2023},{"modified":{"time":"2023-11-29T23:33:31.000Z"},"_id":"65648a3daa7d07ce5ca55f0e","name":"Rick Và Morty (Phần 5)","slug":"rick-va-morty-phan-5","origin_name":"Rick and Morty Season 5","thumb_url":"rick-va-morty-phan-5-thumb.jpg","poster_url":"rick-va-morty-phan-5-poster.jpg","year":2021},{"modified":{"time":"2023-11-29T21:17:06.000Z"},"_id":"62d154470376e412649df144","name":"Ngôi Đền Kỳ Quái 3","origin_name":"Pee Nak 3","thumb_url":"ngoi-den-ky-quai-3-thumb.jpg","poster_url":"ngoi-den-ky-quai-3-poster.jpg","slug":"ngoi-den-ky-quai-3","year":2022},{"modified":{"time":"2023-11-29T12:58:49.000Z"},"_id":"655494b403f63c57cb95e391","name":"Lương Thần Mỹ Cảnh Hựu Phùng Quân","slug":"luong-than-my-canh-huu-phung-quan","origin_name":"良辰美景又逢君","thumb_url":"luong-than-my-canh-huu-phung-quan-thumb.jpg","poster_url":"luong-than-my-canh-huu-phung-quan-poster.jpg","year":2023},{"modified":{"time":"2023-11-29T10:39:29.000Z"},"_id":"6228878beb35da19972e2073","name":"Bùa đêm","origin_name":"Drunk","thumb_url":"bua-dem-thumb.jpg","slug":"bua-dem","year":2018,"poster_url":"bua-dem-poster.jpg"},{"modified":{"time":"2023-11-29T10:39:18.000Z"},"_id":"6228877eeb35da19972e2062","name":"Câu chuyện về một con nhện yêu tinh","origin_name":"Story of a Spider Goblin","thumb_url":"cau-chuyen-ve-mot-con-nhen-yeu-tinh-thumb.jpg","slug":"cau-chuyen-ve-mot-con-nhen-yeu-tinh","year":2018,"poster_url":"cau-chuyen-ve-mot-con-nhen-yeu-tinh-poster.jpg"},{"modified":{"time":"2023-11-29T10:39:02.000Z"},"_id":"62288768eb35da19972e2051","name":"Chín bang 3","origin_name":"Nine States 3","thumb_url":"chin-bang-3-thumb.jpg","slug":"chin-bang-3","year":2018,"poster_url":"chin-bang-3-poster.jpg"},{"modified":{"time":"2023-11-29T10:38:52.000Z"},"_id":"6228875aeb35da19972e2040","name":"Cô gái dễ thương quyết chiến giang hồ","origin_name":"The Girl with Super Ability","thumb_url":"co-gai-de-thuong-quyet-chien-giang-ho-thumb.jpg","slug":"co-gai-de-thuong-quyet-chien-giang-ho","year":2017,"poster_url":"co-gai-de-thuong-quyet-chien-giang-ho-poster.jpg"},{"modified":{"time":"2023-11-29T10:38:40.000Z"},"_id":"6228874aeb35da19972e202f","name":"Cứu chuộc tâm linh","origin_name":"The Redemption","thumb_url":"cuu-chuoc-tam-linh-thumb.jpg","slug":"cuu-chuoc-tam-linh","year":2017,"poster_url":"cuu-chuoc-tam-linh-poster.jpg"},{"modified":{"time":"2023-11-29T10:37:36.000Z"},"_id":"62288739eb35da19972e201e","name":"Đặc công máu lạnh","origin_name":"Cold-blooded Agent","thumb_url":"dac-cong-mau-lanh-thumb.jpg","slug":"dac-cong-mau-lanh","year":2018,"poster_url":"dac-cong-mau-lanh-poster.jpg"},{"modified":{"time":"2023-11-29T10:37:17.000Z"},"_id":"6228872deb35da19972e200d","name":"Đại lý ma","origin_name":"Phantom Agent","thumb_url":"dai-ly-ma-thumb.jpg","slug":"dai-ly-ma","year":2018,"poster_url":"dai-ly-ma-poster.jpg"}],"pathImage":"https://img.ophim12.cc/uploads/movies/","pagination":{"totalItems":25554,"totalItemsPerPage":24,"currentPage":61,"totalPages":1065}}