{"status":true,"items":[{"modified":{"time":"2024-02-28T19:42:31.000Z"},"_id":"65df2a2ff5295c8cd105deaa","name":"Woman","slug":"woman","origin_name":"Woman","thumb_url":"woman-thumb.jpg","poster_url":"woman-poster.jpg","year":2013},{"modified":{"time":"2024-02-28T19:40:55.000Z"},"_id":"65d62ab25540d59e3ffd4b37","name":"Liệp Băng","slug":"liep-bang","origin_name":"The Hunter","thumb_url":"liep-bang-thumb.jpg","poster_url":"liep-bang-poster.jpg","year":2024},{"modified":{"time":"2024-02-28T19:40:31.000Z"},"_id":"65d46b755540d59e3ffacb87","name":"Đại Lý Tự Thiếu Khanh Du","slug":"dai-ly-tu-thieu-khanh-du","origin_name":"White Cat Legend","thumb_url":"dai-ly-tu-thieu-khanh-du-thumb.jpg","poster_url":"dai-ly-tu-thieu-khanh-du-poster.jpg","year":2024},{"modified":{"time":"2024-02-28T19:35:09.000Z"},"_id":"65df2428e5f40e2ffe72a059","name":"Vĩnh An Mộng","slug":"vinh-an-mong","origin_name":"Yongan Dream","thumb_url":"vinh-an-mong-thumb.jpg","poster_url":"vinh-an-mong-poster.jpg","year":2024},{"modified":{"time":"2024-02-28T19:32:03.000Z"},"_id":"65cb7dc35540d59e3fef693c","name":"Pháo Hoa Nhân Gian","slug":"phao-hoa-nhan-gia","origin_name":"Islands","thumb_url":"phao-hoa-nhan-gia-thumb.jpg","poster_url":"phao-hoa-nhan-gia-poster.jpg","year":2024},{"modified":{"time":"2024-02-28T19:30:44.000Z"},"_id":"655af363aa7d07ce5c940435","name":"Cô Dâu Istanbul","slug":"co-dau-instabul","origin_name":"Istanbullu Gelin","thumb_url":"co-dau-instabul-thumb.jpg","poster_url":"co-dau-instabul-poster.jpg","year":2017},{"modified":{"time":"2024-02-28T19:24:52.000Z"},"_id":"65ddeb80e5f40e2ffe6a37f2","name":"Tử Xuyên: Quang Minh Tam Kiệt","slug":"tu-xuyen-quang-minh-tam-kiet","origin_name":"Eternal Brotherhood","thumb_url":"tu-xuyen-quang-minh-tam-kiet-thumb.jpg","poster_url":"tu-xuyen-quang-minh-tam-kiet-poster.jpg","year":2024},{"modified":{"time":"2024-02-28T19:17:19.000Z"},"_id":"6404b7820fc1635bd467951c","name":"Cầm Tù","slug":"cam-tu","origin_name":"Esaret","thumb_url":"cam-tu-thumb.jpg","poster_url":"cam-tu-poster.jpg","year":2022},{"modified":{"time":"2024-02-28T19:17:02.000Z"},"_id":"6422921654695c9785d3b336","name":"Hoa Máu","slug":"hoa-mau","origin_name":"Kan Cicekleri","thumb_url":"hoa-mau-thumb.jpg","poster_url":"hoa-mau-poster.jpg","year":2022},{"modified":{"time":"2024-02-28T19:16:40.000Z"},"_id":"651fa568fe8e2316c08d3646","name":"Hoang Dã","slug":"hoang-da","origin_name":"Yabani","thumb_url":"hoang-da-thumb.jpg","poster_url":"hoang-da-poster.jpg","year":2023},{"modified":{"time":"2024-02-28T19:16:24.000Z"},"_id":"641858206b6fc3890474ea3a","name":"Bản Án","slug":"ban-an","origin_name":"Yargi","thumb_url":"ban-an-thumb.jpg","poster_url":"ban-an-poster.jpg","year":2021},{"modified":{"time":"2024-02-28T17:21:08.000Z"},"_id":"65dcc798e5f40e2ffe66b250","name":"Hôn Lễ Bất Khả Thi","slug":"hon-le-bat-kha-thi","origin_name":"Wedding Impossible","thumb_url":"hon-le-bat-kha-thi-thumb.jpg","poster_url":"hon-le-bat-kha-thi-poster.jpg","year":2024},{"modified":{"time":"2024-02-28T16:46:08.000Z"},"_id":"6571b4bc2f36c295ed0954bf","name":"Cô Đi Mà Lấy Chồng Tôi","slug":"co-di-ma-lay-chong-toi","origin_name":"Marry My Husband","thumb_url":"co-di-ma-lay-chong-toi-thumb.jpg","poster_url":"co-di-ma-lay-chong-toi-poster.jpg","year":2024},{"modified":{"time":"2024-02-28T14:01:25.000Z"},"_id":"65deda45f5295c8cd1038bed","name":"Exhuma: Quật mộ trùng ma","slug":"exhuma-quat-mo-trung-ma","origin_name":"Exhuma","thumb_url":"exhuma-quat-mo-trung-ma-thumb.jpg","poster_url":"exhuma-quat-mo-trung-ma-poster.jpg","year":2024},{"modified":{"time":"2024-02-28T11:33:00.000Z"},"_id":"65a4fd687074f826ccd3179d","name":"Thực Tập Sinh Trong Trái Tim Tôi","slug":"thuc-tap-sinh-trong-trai-tim-toi","origin_name":"Intern in my heart","thumb_url":"thuc-tap-sinh-trong-trai-tim-toi-thumb.jpg","poster_url":"thuc-tap-sinh-trong-trai-tim-toi-poster.jpg","year":2024},{"modified":{"time":"2024-02-28T11:30:44.000Z"},"_id":"65a5e1b27074f826ccde27fa","name":"Time the Series","slug":"time-the-series","origin_name":"Time the Series","thumb_url":"time-the-series-thumb.jpg","poster_url":"time-the-series-poster.jpg","year":2024},{"modified":{"time":"2024-02-28T11:29:59.000Z"},"_id":"65d45c745540d59e3ffa8f82","name":"Nụ Hôn Ở Seongsu","slug":"nu-hon-o-seongsu","origin_name":"Branding in Seongsu","thumb_url":"nu-hon-o-seongsu-thumb.jpg","poster_url":"nu-hon-o-seongsu-poster.jpg","year":2024},{"modified":{"time":"2024-02-28T11:13:36.000Z"},"_id":"65d46e95ff05f1a47d1fe63f","name":"9 Lần Gặp Em","slug":"9-lan-gap-em","origin_name":"Nine Times Time Travel","thumb_url":"9-lan-gap-em-thumb.jpg","poster_url":"9-lan-gap-em-poster.jpg","year":2023},{"modified":{"time":"2024-02-28T11:13:11.000Z"},"_id":"65dca927f5295c8cd1f94279","name":"Anh Từng Đến Tương Lai Của Em","slug":"anh-tung-den-tuong-lai-cua-em","origin_name":"I've Been to Your Future","thumb_url":"anh-tung-den-tuong-lai-cua-em-thumb.jpg","poster_url":"anh-tung-den-tuong-lai-cua-em-poster.jpg","year":2023},{"modified":{"time":"2024-02-28T11:12:42.000Z"},"_id":"65d82a2fe5f40e2ffe5eb047","name":"Tình Yêu Trong Bàn Tay","slug":"tinh-yeu-trong-ban-tay","origin_name":"Palms on Love","thumb_url":"tinh-yeu-trong-ban-tay-thumb.jpg","poster_url":"tinh-yeu-trong-ban-tay-poster.jpg","year":2024},{"modified":{"time":"2024-02-28T11:10:38.000Z"},"_id":"65de926cf5295c8cd1015d4f","name":"Thế Giới Ngầm Tokyo (Phần 2)","slug":"the-gioi-ngam-tokyo-phan-2","origin_name":"Tokyo Vice Season 2","thumb_url":"the-gioi-ngam-tokyo-phan-2-thumb.jpg","poster_url":"the-gioi-ngam-tokyo-phan-2-poster.jpg","year":2024},{"modified":{"time":"2024-02-28T09:58:02.000Z"},"_id":"65dea138e5f40e2ffe6ee3dc","name":"NASCAR: Hết tốc lực","slug":"nascar-het-toc-luc","origin_name":"NASCAR: Full Speed","thumb_url":"nascar-het-toc-luc-thumb.jpg","poster_url":"nascar-het-toc-luc-poster.jpg","year":2024},{"modified":{"time":"2024-02-28T09:55:56.000Z"},"_id":"65dea0baf5295c8cd101daef","name":"The Great Rift: Africa's Wild Heart","slug":"the-great-rift-africas-wild-heart","origin_name":"The Great Rift: Africa's Wild Heart","thumb_url":"the-great-rift-africas-wild-heart-thumb.jpg","poster_url":"the-great-rift-africas-wild-heart-poster.jpg","year":2010},{"modified":{"time":"2024-02-28T09:54:13.000Z"},"_id":"65dea053f5295c8cd101d5b1","name":"Survival Of The Snow Leopard","slug":"survival-of-the-snow-leopard","origin_name":"Survival Of The Snow Leopard","thumb_url":"survival-of-the-snow-leopard-thumb.jpg","poster_url":"survival-of-the-snow-leopard-poster.jpg","year":2020}],"pathImage":"https://img.ophim12.cc/uploads/movies/","pagination":{"totalItems":25407,"totalItemsPerPage":24,"currentPage":1,"totalPages":1059}}