{"status":true,"items":[{"modified":{"time":"2022-11-04T01:00:30.000Z"},"_id":"636401be42172e350e2f8246","name":"Ai chết giơ tay: Pháp Sư Mù","origin_name":"Land Of Spirits: The Blind Shaman","thumb_url":"ai-chet-gio-tay-phap-su-mu-thumb.jpg","poster_url":"ai-chet-gio-tay-phap-su-mu-poster.jpg","slug":"ai-chet-gio-tay-phap-su-mu","year":2019},{"modified":{"time":"2022-11-04T00:59:53.000Z"},"_id":"6364019942172e350e2f80ba","name":"Dân chơi không sợ con rơi","origin_name":"My Father is a Playboy","thumb_url":"dan-choi-khong-so-con-roi-thumb.jpg","poster_url":"dan-choi-khong-so-con-roi-poster.jpg","slug":"dan-choi-khong-so-con-roi","year":2022},{"modified":{"time":"2022-11-04T00:58:25.000Z"},"_id":"6364014142172e350e2f7e6c","name":"Sát nhân Sally","origin_name":"Killer Sally","thumb_url":"sat-nhan-sally-thumb.jpg","poster_url":"sat-nhan-sally-poster.jpg","slug":"sat-nhan-sally","year":2022},{"modified":{"time":"2022-11-04T00:57:51.000Z"},"_id":"6364011f42172e350e2f7d7e","name":"Hoàng tử rồng (Phần 4)","origin_name":"The Dragon Prince (Season 4)","thumb_url":"hoang-tu-rong-phan-4-thumb.jpg","poster_url":"hoang-tu-rong-phan-4-poster.jpg","slug":"hoang-tu-rong-phan-4","year":2018},{"modified":{"time":"2022-11-04T00:56:44.000Z"},"_id":"636400dc42172e350e2f7bad","name":"BLOCKBUSTER","origin_name":"BLOCKBUSTER","thumb_url":"blockbuster-thumb.jpg","poster_url":"blockbuster-poster.jpg","slug":"blockbuster","year":2022},{"modified":{"time":"2022-11-03T20:30:23.000Z"},"_id":"6363c26f42172e350e2d0091","name":"Sát Nhân Hai Mặt","origin_name":"Merciless","thumb_url":"sat-nhan-hai-mat-thumb.jpg","poster_url":"sat-nhan-hai-mat-poster.jpg","slug":"sat-nhan-hai-mat","year":2014},{"modified":{"time":"2022-11-03T20:29:29.000Z"},"_id":"6363c23942172e350e2cfe9f","name":"Cuộc Chiến Vàng Đen (Phần 1)","origin_name":"Iron Island (Season 1)","thumb_url":"cuoc-chien-vang-den-phan-1-thumb.jpg","poster_url":"cuoc-chien-vang-den-phan-1-poster.jpg","slug":"cuoc-chien-vang-den-phan-1","year":2018},{"modified":{"time":"2022-11-03T20:28:49.000Z"},"_id":"6363c21142172e350e2cfcf5","name":"Bậc Thầy Diệt Quỷ","origin_name":"Constantine","thumb_url":"bac-thay-diet-quy-thumb.jpg","poster_url":"bac-thay-diet-quy-poster.jpg","slug":"bac-thay-diet-quy","year":2014},{"modified":{"time":"2022-11-03T20:27:12.000Z"},"_id":"6363c1b042172e350e2cfa4c","name":"Cuộc Chiến Vàng Đen (Phần 2)","origin_name":"Iron Island (Season 2)","thumb_url":"cuoc-chien-vang-den-phan-2-thumb.jpg","poster_url":"cuoc-chien-vang-den-phan-2-poster.jpg","slug":"cuoc-chien-vang-den-phan-2","year":2019},{"modified":{"time":"2022-11-03T20:25:25.000Z"},"_id":"62220d3feb35da19972d3ca7","name":"Góc Khuất Học Đường (Melancholia)","origin_name":"Melancholia","thumb_url":"goc-khuat-hoc-duong-melancholia-thumb.jpg","slug":"goc-khuat-hoc-duong-melancholia","year":2021,"poster_url":"goc-khuat-hoc-duong-melancholia-poster.jpg"},{"modified":{"time":"2022-11-03T18:22:01.000Z"},"_id":"6363a45942172e350e2be45c","name":"Vụ Thảm Sát Jersey Shore","origin_name":"Jersey Shore Massacre","thumb_url":"vu-tham-sat-jersey-shore-thumb.jpg","poster_url":"vu-tham-sat-jersey-shore-poster.jpg","slug":"vu-tham-sat-jersey-shore","year":2014},{"modified":{"time":"2022-11-03T18:20:27.000Z"},"_id":"6363a3fb42172e350e2bdfe7","name":"Trận Chiến Không Cân Sức","origin_name":"A Case of Deceit","thumb_url":"tran-chien-khong-can-suc-thumb.jpg","poster_url":"tran-chien-khong-can-suc-poster.jpg","slug":"tran-chien-khong-can-suc","year":2015},{"modified":{"time":"2022-11-03T18:18:52.000Z"},"_id":"6363a39c42172e350e2bdc92","name":"Tôi Vẫn Phải Sống","origin_name":"I Am Still Here","thumb_url":"toi-van-phai-song-thumb.jpg","poster_url":"toi-van-phai-song-poster.jpg","slug":"toi-van-phai-song","year":2018},{"modified":{"time":"2022-11-03T18:18:10.000Z"},"_id":"6363a37242172e350e2bdada","name":"Thủ Tiêu Nhân Chứng ","origin_name":"Solver","thumb_url":"thu-tieu-nhan-chung-thumb.jpg","poster_url":"thu-tieu-nhan-chung-poster.jpg","slug":"thu-tieu-nhan-chung","year":2018},{"modified":{"time":"2022-11-03T18:17:23.000Z"},"_id":"6363a34342172e350e2bd940","name":"Đánh Cược Mạng Sống ","origin_name":"Caina","thumb_url":"danh-cuoc-mang-song-thumb.jpg","poster_url":"danh-cuoc-mang-song-poster.jpg","slug":"danh-cuoc-mang-song","year":2016},{"modified":{"time":"2022-11-03T18:16:21.000Z"},"_id":"6363a30542172e350e2bd6df","name":"Ám Ảnh","origin_name":"The Black Dahlia Haunting","thumb_url":"am-anh-2012-thumb.jpg","poster_url":"am-anh-2012-poster.jpg","slug":"am-anh-2012","year":2012},{"modified":{"time":"2022-11-03T18:15:06.000Z"},"_id":"6363a2ba42172e350e2bd3d1","name":"Thời Gian Sẽ Trả Lời","origin_name":"Time Will Tell","thumb_url":"thoi-gian-se-tra-loi-thumb.jpg","poster_url":"thoi-gian-se-tra-loi-poster.jpg","slug":"thoi-gian-se-tra-loi","year":2018},{"modified":{"time":"2022-11-03T18:13:46.000Z"},"_id":"6363a26a42172e350e2bd0ca","name":"Thám Tử Nhí ","origin_name":"Mobster Kids","thumb_url":"tham-tu-nhi-thumb.jpg","poster_url":"tham-tu-nhi-poster.jpg","slug":"tham-tu-nhi","year":2014},{"modified":{"time":"2022-11-03T15:18:16.000Z"},"_id":"63637822a96d5b232ef5fd7f","name":"Nữ Vương Huyền Thoại","origin_name":"The Woman King","thumb_url":"nu-vuong-huyen-thoai-thumb.jpg","poster_url":"nu-vuong-huyen-thoai-poster.jpg","slug":"nu-vuong-huyen-thoai","year":2022},{"modified":{"time":"2022-11-03T13:25:06.000Z"},"_id":"63635e55a96d5b232ef57ee9","name":"Kỳ Nghỉ Kinh Hoàng","origin_name":"Tucker and Dale vs. Evil","thumb_url":"ky-nghi-kinh-hoang-2010-thumb.jpg","poster_url":"ky-nghi-kinh-hoang-2010-poster.jpg","slug":"ky-nghi-kinh-hoang-2010","year":2010},{"modified":{"time":"2022-11-03T01:50:48.000Z"},"_id":"6362aa00a96d5b232ef1b29d","name":"Cuộc Chiến Thám Tử","origin_name":"Detective vs. Sleuths","thumb_url":"cuoc-chien-tham-tu-thumb.jpg","poster_url":"cuoc-chien-tham-tu-poster.jpg","slug":"cuoc-chien-tham-tu","year":2022},{"modified":{"time":"2022-11-02T19:38:10.000Z"},"_id":"636264b2a96d5b232ef08bee","name":"Molang (Phần 4)","origin_name":"Molang (Season 4)","thumb_url":"molang-phan-4-thumb.jpg","poster_url":"molang-phan-4-poster.jpg","slug":"molang-phan-4","year":2019},{"modified":{"time":"2022-11-02T19:37:16.000Z"},"_id":"63626472a96d5b232ef089d9","name":"Molang (Phần 3)","origin_name":"Molang (Season 3)","thumb_url":"molang-phan-3-thumb.jpg","poster_url":"molang-phan-3-poster.jpg","slug":"molang-phan-3","year":2018},{"modified":{"time":"2022-11-02T19:36:22.000Z"},"_id":"6362643aa96d5b232ef087e5","name":"Molang (Phần 2)","origin_name":"Molang (Season 2)","thumb_url":"molang-phan-2-thumb.jpg","poster_url":"molang-phan-2-poster.jpg","slug":"molang-phan-2","year":2016}],"pathImage":"https://img.ophim12.cc/uploads/movies/","pagination":{"totalItems":25554,"totalItemsPerPage":24,"currentPage":703,"totalPages":1065}}